ISO-10303-21;
HEADER;
FILE_DESCRIPTION (( 'STEP AP214' ),
    '1' );
FILE_NAME ('B0503S-1WR3.STEP',
    '2021-04-08T15:58:11',
    ( '' ),
    ( '' ),
    'SwSTEP 2.0',
    'SolidWorks 2017',
    '' );
FILE_SCHEMA (( 'AUTOMOTIVE_DESIGN' ));
ENDSEC;

DATA;
#1 = PLANE ( 'NONE',  #483 ) ;
#2 = ORIENTED_EDGE ( 'NONE', *, *, #957, .F. ) ;
#3 = CARTESIAN_POINT ( 'NONE',  ( 1.520000000000000500, 0.4999999999999987200, 2.250000000000000000 ) ) ;
#4 = ORIENTED_EDGE ( 'NONE', *, *, #844, .T. ) ;
#5 = SURFACE_STYLE_USAGE ( .BOTH. , #721 ) ;
#6 = FILL_AREA_STYLE_COLOUR ( '', #762 ) ;
#7 = DIRECTION ( 'NONE',  ( 1.000000000000000000, 0.0000000000000000000, 0.0000000000000000000 ) ) ;
#8 =( NAMED_UNIT ( * ) PLANE_ANGLE_UNIT ( ) SI_UNIT ( $, .RADIAN. ) );
#9 = VECTOR ( 'NONE', #991, 1000.000000000000000 ) ;
#10 = CARTESIAN_POINT ( 'NONE',  ( 0.0000000000000000000, 0.4999999999999987200, 0.0000000000000000000 ) ) ;
#11 = ADVANCED_FACE ( 'NONE', ( #574 ), #286, .T. ) ;
#12 = EDGE_CURVE ( 'NONE', #248, #979, #89, .T. ) ;
#13 = VERTEX_POINT ( 'NONE', #818 ) ;
#14 = DIRECTION ( 'NONE',  ( 2.891205793294681400E-015, -3.340955887615256400E-045, 1.000000000000000000 ) ) ;
#15 = EDGE_LOOP ( 'NONE', ( #386, #676, #310, #359 ) ) ;
#16 = EDGE_CURVE ( 'NONE', #268, #26, #874, .T. ) ;
#17 = DIRECTION ( 'NONE',  ( -0.0000000000000000000, 1.000000000000000000, -0.0000000000000000000 ) ) ;
#18 = SURFACE_STYLE_FILL_AREA ( #436 ) ;
#19 = AXIS2_PLACEMENT_3D ( 'NONE', #271, #925, #1111 ) ;
#20 = DIRECTION ( 'NONE',  ( 1.155557966632344500E-030, 1.000000000000000000, -0.0000000000000000000 ) ) ;
#21 = LINE ( 'NONE', #492, #1172 ) ;
#22 = DIRECTION ( 'NONE',  ( -0.0000000000000000000, 0.0000000000000000000, 1.000000000000000000 ) ) ;
#23 = FILL_AREA_STYLE_COLOUR ( '', #232 ) ;
#24 = EDGE_LOOP ( 'NONE', ( #551, #37, #461, #287 ) ) ;
#25 = ORIENTED_EDGE ( 'NONE', *, *, #115, .F. ) ;
#26 = VERTEX_POINT ( 'NONE', #563 ) ;
#27 = EDGE_CURVE ( 'NONE', #268, #975, #351, .T. ) ;
#28 = ADVANCED_FACE ( 'NONE', ( #133 ), #730, .F. ) ;
#29 = CYLINDRICAL_SURFACE ( 'NONE', #333, 0.5000000000000000000 ) ;
#30 = LINE ( 'NONE', #877, #528 ) ;
#31 = AXIS2_PLACEMENT_3D ( 'NONE', #835, #22, #294 ) ;
#32 = CIRCLE ( 'NONE', #417, 0.5000000000000000000 ) ;
#33 = ADVANCED_FACE ( 'NONE', ( #939 ), #370, .F. ) ;
#34 = ORIENTED_EDGE ( 'NONE', *, *, #27, .T. ) ;
#35 = EDGE_CURVE ( 'NONE', #786, #146, #42, .T. ) ;
#36 = VERTEX_POINT ( 'NONE', #739 ) ;
#37 = ORIENTED_EDGE ( 'NONE', *, *, #16, .T. ) ;
#38 = DIRECTION ( 'NONE',  ( -1.000000000000000000, 1.155557966632344500E-030, 0.0000000000000000000 ) ) ;
#39 = LINE ( 'NONE', #964, #1120 ) ;
#40 = VECTOR ( 'NONE', #169, 1000.000000000000000 ) ;
#41 = ADVANCED_FACE ( 'NONE', ( #172 ), #198, .F. ) ;
#42 = LINE ( 'NONE', #564, #125 ) ;
#43 = EDGE_CURVE ( 'NONE', #49, #1130, #887, .T. ) ;
#44 = PLANE ( 'NONE',  #585 ) ;
#45 = ORIENTED_EDGE ( 'NONE', *, *, #1167, .T. ) ;
#46 = AXIS2_PLACEMENT_3D ( 'NONE', #1062, #515, #1152 ) ;
#47 = VERTEX_POINT ( 'NONE', #791 ) ;
#48 = EDGE_LOOP ( 'NONE', ( #2, #122, #855, #702 ) ) ;
#49 = VERTEX_POINT ( 'NONE', #338 ) ;
#50 = LINE ( 'NONE', #529, #879 ) ;
#51 = UNCERTAINTY_MEASURE_WITH_UNIT (LENGTH_MEASURE( 1.000000000000000100E-005 ), #79, 'distance_accuracy_value', 'NONE');
#52 = LINE ( 'NONE', #267, #885 ) ;
#53 = CARTESIAN_POINT ( 'NONE',  ( -3.559999999999999600, 0.4999999999999987200, 2.250000000000000000 ) ) ;
#54 = PLANE ( 'NONE',  #346 ) ;
#55 = VERTEX_POINT ( 'NONE', #419 ) ;
#56 = CARTESIAN_POINT ( 'NONE',  ( 4.060000000000001400, -8.783095189484532400, 1.950000000000000200 ) ) ;
#57 = ORIENTED_EDGE ( 'NONE', *, *, #462, .F. ) ;
#58 = CARTESIAN_POINT ( 'NONE',  ( 3.559999999999999600, 0.4999999999999987200, 2.250000000000000000 ) ) ;
#59 = CARTESIAN_POINT ( 'NONE',  ( -4.699999999999998400, 1.499999999999999600, 2.799999999999999800 ) ) ;
#60 = CARTESIAN_POINT ( 'NONE',  ( -4.060000000000000500, 0.4999999999999987200, 2.250000000000000000 ) ) ;
#61 = EDGE_LOOP ( 'NONE', ( #601, #320, #126, #118 ) ) ;
#62 = VECTOR ( 'NONE', #374, 1000.000000000000000 ) ;
#63 = UNCERTAINTY_MEASURE_WITH_UNIT (LENGTH_MEASURE( 1.000000000000000100E-005 ), #785, 'distance_accuracy_value', 'NONE');
#64 = CARTESIAN_POINT ( 'NONE',  ( 5.299999999999998900, 0.4999999999999987200, 3.000000000000000000 ) ) ;
#65 = LINE ( 'NONE', #901, #862 ) ;
#66 = DIRECTION ( 'NONE',  ( 1.000000000000000000, -1.155557966632344500E-030, 0.0000000000000000000 ) ) ;
#67 = DIRECTION ( 'NONE',  ( 1.000000000000000000, 0.0000000000000000000, 0.0000000000000000000 ) ) ;
#68 = VECTOR ( 'NONE', #565, 1000.000000000000000 ) ;
#69 = AXIS2_PLACEMENT_3D ( 'NONE', #1050, #502, #596 ) ;
#70 = EDGE_CURVE ( 'NONE', #1053, #343, #774, .T. ) ;
#71 = AXIS2_PLACEMENT_3D ( 'NONE', #842, #214, #300 ) ;
#72 = FILL_AREA_STYLE_COLOUR ( '', #861 ) ;
#73 = DIRECTION ( 'NONE',  ( 1.000000000000000000, -0.0000000000000000000, -0.0000000000000000000 ) ) ;
#74 = CARTESIAN_POINT ( 'NONE',  ( 1.020000000000000000, 0.4999999999999987200, 2.250000000000000000 ) ) ;
#75 = ORIENTED_EDGE ( 'NONE', *, *, #907, .F. ) ;
#76 = DIRECTION ( 'NONE',  ( 0.0000000000000000000, 0.0000000000000000000, -1.000000000000000000 ) ) ;
#77 = CARTESIAN_POINT ( 'NONE',  ( 3.559999999999999600, -8.783095189484532400, 2.250000000000000000 ) ) ;
#78 = ORIENTED_EDGE ( 'NONE', *, *, #389, .T. ) ;
#79 =( LENGTH_UNIT ( ) NAMED_UNIT ( * ) SI_UNIT ( .MILLI., .METRE. ) );
#80 = DIRECTION ( 'NONE',  ( 0.0000000000000000000, 0.0000000000000000000, 1.000000000000000000 ) ) ;
#81 = ORIENTED_EDGE ( 'NONE', *, *, #852, .T. ) ;
#82 = ORIENTED_EDGE ( 'NONE', *, *, #524, .F. ) ;
#83 = AXIS2_PLACEMENT_3D ( 'NONE', #710, #1169, #76 ) ;
#84 = SURFACE_STYLE_FILL_AREA ( #588 ) ;
#85 = CARTESIAN_POINT ( 'NONE',  ( 5.299999999999999800, -1.250937729805010500E-015, 3.000000000000000000 ) ) ;
#86 = FILL_AREA_STYLE ('',( #192 ) ) ;
#87 = CARTESIAN_POINT ( 'NONE',  ( -3.559999999999999600, -8.783095189484532400, 2.250000000000000000 ) ) ;
#88 = VECTOR ( 'NONE', #1002, 1000.000000000000000 ) ;
#89 = LINE ( 'NONE', #548, #1073 ) ;
#90 = EDGE_CURVE ( 'NONE', #577, #892, #21, .T. ) ;
#91 = DIRECTION ( 'NONE',  ( 0.0000000000000000000, 0.0000000000000000000, 1.000000000000000000 ) ) ;
#92 =( NAMED_UNIT ( * ) SI_UNIT ( $, .STERADIAN. ) SOLID_ANGLE_UNIT ( ) );
#93 =( NAMED_UNIT ( * ) PLANE_ANGLE_UNIT ( ) SI_UNIT ( $, .RADIAN. ) );
#94 = AXIS2_PLACEMENT_3D ( 'NONE', #722, #926, #629 ) ;
#95 =( NAMED_UNIT ( * ) SI_UNIT ( $, .STERADIAN. ) SOLID_ANGLE_UNIT ( ) );
#96 = CARTESIAN_POINT ( 'NONE',  ( -4.060000000000000500, -8.783095189484532400, 2.250000000000000000 ) ) ;
#97 = CARTESIAN_POINT ( 'NONE',  ( -4.060000000000001400, -4.100000000000000500, 1.950000000000000200 ) ) ;
#98 = CARTESIAN_POINT ( 'NONE',  ( 0.0000000000000000000, 0.4999999999999987200, 0.0000000000000000000 ) ) ;
#99 = EDGE_LOOP ( 'NONE', ( #756, #864, #613, #675 ) ) ;
#100 = ORIENTED_EDGE ( 'NONE', *, *, #1133, .F. ) ;
#101 = ADVANCED_FACE ( 'NONE', ( #318 ), #282, .F. ) ;
#102 = DIRECTION ( 'NONE',  ( 1.155557966632344500E-030, 1.000000000000000000, -0.0000000000000000000 ) ) ;
#103 = ORIENTED_EDGE ( 'NONE', *, *, #657, .F. ) ;
#104 = AXIS2_PLACEMENT_3D ( 'NONE', #936, #20, #652 ) ;
#105 = LINE ( 'NONE', #434, #690 ) ;
#106 = CARTESIAN_POINT ( 'NONE',  ( 5.799999999999998900, -4.100000000000000500, 3.000000000000000000 ) ) ;
#107 = CARTESIAN_POINT ( 'NONE',  ( -4.699999999999998400, 1.499999999999999600, 3.000000000000000000 ) ) ;
#108 = ORIENTED_EDGE ( 'NONE', *, *, #763, .F. ) ;
#109 = VECTOR ( 'NONE', #1140, 1000.000000000000000 ) ;
#110 = VECTOR ( 'NONE', #641, 1000.000000000000000 ) ;
#111 = ADVANCED_FACE ( 'NONE', ( #682 ), #903, .T. ) ;
#112 = VECTOR ( 'NONE', #801, 1000.000000000000000 ) ;
#113 = VECTOR ( 'NONE', #17, 1000.000000000000000 ) ;
#114 = DIRECTION ( 'NONE',  ( 1.155557966632344500E-030, 1.000000000000000000, -0.0000000000000000000 ) ) ;
#115 = EDGE_CURVE ( 'NONE', #867, #305, #140, .T. ) ;
#116 =( NAMED_UNIT ( * ) PLANE_ANGLE_UNIT ( ) SI_UNIT ( $, .RADIAN. ) );
#117 = AXIS2_PLACEMENT_3D ( 'NONE', #834, #929, #1110 ) ;
#118 = ORIENTED_EDGE ( 'NONE', *, *, #115, .T. ) ;
#119 = ORIENTED_EDGE ( 'NONE', *, *, #555, .F. ) ;
#120 =( LENGTH_UNIT ( ) NAMED_UNIT ( * ) SI_UNIT ( .MILLI., .METRE. ) );
#121 = EDGE_LOOP ( 'NONE', ( #998, #408, #1109, #784 ) ) ;
#122 = ORIENTED_EDGE ( 'NONE', *, *, #961, .T. ) ;
#123 = LINE ( 'NONE', #354, #506 ) ;
#124 = AXIS2_PLACEMENT_3D ( 'NONE', #558, #819, #1016 ) ;
#125 = VECTOR ( 'NONE', #480, 1000.000000000000000 ) ;
#126 = ORIENTED_EDGE ( 'NONE', *, *, #445, .F. ) ;
#127 = ORIENTED_EDGE ( 'NONE', *, *, #631, .F. ) ;
#128 = ORIENTED_EDGE ( 'NONE', *, *, #389, .F. ) ;
#129 = ORIENTED_EDGE ( 'NONE', *, *, #533, .F. ) ;
#130 = LINE ( 'NONE', #342, #794 ) ;
#131 = VECTOR ( 'NONE', #1078, 1000.000000000000000 ) ;
#132 = VECTOR ( 'NONE', #535, 1000.000000000000000 ) ;
#133 = FACE_OUTER_BOUND ( 'NONE', #48, .T. ) ;
#134 = EDGE_CURVE ( 'NONE', #13, #268, #1021, .T. ) ;
#135 = CARTESIAN_POINT ( 'NONE',  ( -1.019999999999999600, -4.100000000000000500, 2.250000000000000000 ) ) ;
#136 = ORIENTED_EDGE ( 'NONE', *, *, #163, .F. ) ;
#137 = ORIENTED_EDGE ( 'NONE', *, *, #1018, .T. ) ;
#138 = VECTOR ( 'NONE', #1104, 1000.000000000000000 ) ;
#139 = PLANE ( 'NONE',  #46 ) ;
#140 = LINE ( 'NONE', #1116, #1044 ) ;
#141 = AXIS2_PLACEMENT_3D ( 'NONE', #713, #908, #1176 ) ;
#142 = CARTESIAN_POINT ( 'NONE',  ( -5.799999999999998900, -1.250937729805011100E-015, 3.000000000000000000 ) ) ;
#143 =( NAMED_UNIT ( * ) SI_UNIT ( $, .STERADIAN. ) SOLID_ANGLE_UNIT ( ) );
#144 = PRODUCT ( 'B0503S-1WR3', 'B0503S-1WR3', '', ( #1141 ) ) ;
#145 = EDGE_CURVE ( 'NONE', #758, #1134, #659, .T. ) ;
#146 = VERTEX_POINT ( 'NONE', #206 ) ;
#147 = DIRECTION ( 'NONE',  ( 2.891205793294681400E-015, -3.340955887615256400E-045, 1.000000000000000000 ) ) ;
#148 = EDGE_CURVE ( 'NONE', #654, #204, #415, .T. ) ;
#149 = EDGE_LOOP ( 'NONE', ( #129, #1143, #238, #1055 ) ) ;
#150 = ORIENTED_EDGE ( 'NONE', *, *, #209, .T. ) ;
#151 = FACE_OUTER_BOUND ( 'NONE', #943, .T. ) ;
#152 =( LENGTH_UNIT ( ) NAMED_UNIT ( * ) SI_UNIT ( .MILLI., .METRE. ) );
#153 = LINE ( 'NONE', #896, #40 ) ;
#154 = MECHANICAL_DESIGN_GEOMETRIC_PRESENTATION_REPRESENTATION (  '', ( #723 ), #1051 ) ;
#155 = LINE ( 'NONE', #394, #694 ) ;
#156 =( NAMED_UNIT ( * ) SI_UNIT ( $, .STERADIAN. ) SOLID_ANGLE_UNIT ( ) );
#157 = ORIENTED_EDGE ( 'NONE', *, *, #462, .T. ) ;
#158 = DIRECTION ( 'NONE',  ( 2.891205793294681400E-015, -3.340955887615256400E-045, -1.000000000000000000 ) ) ;
#159 = DIRECTION ( 'NONE',  ( 1.000000000000000000, 0.0000000000000000000, 0.0000000000000000000 ) ) ;
#160 = SURFACE_STYLE_USAGE ( .BOTH. , #168 ) ;
#161 = PLANE ( 'NONE',  #83 ) ;
#162 = DIRECTION ( 'NONE',  ( -0.0000000000000000000, 1.000000000000000000, -0.0000000000000000000 ) ) ;
#163 = EDGE_CURVE ( 'NONE', #204, #55, #750, .T. ) ;
#164 = EDGE_LOOP ( 'NONE', ( #356, #180, #845, #522 ) ) ;
#165 = CARTESIAN_POINT ( 'NONE',  ( -1.019999999999998700, -4.100000000000000500, 1.950000000000000200 ) ) ;
#166 = DIRECTION ( 'NONE',  ( -1.000000000000000000, -0.0000000000000000000, -0.0000000000000000000 ) ) ;
#167 = LINE ( 'NONE', #620, #273 ) ;
#168 = SURFACE_SIDE_STYLE ('',( #561 ) ) ;
#169 = DIRECTION ( 'NONE',  ( 1.000000000000000000, -1.155557966632344500E-030, -0.0000000000000000000 ) ) ;
#170 = CARTESIAN_POINT ( 'NONE',  ( -1.520000000000000900, 0.4999999999999987200, 1.950000000000000200 ) ) ;
#171 = LINE ( 'NONE', #277, #643 ) ;
#172 = FACE_OUTER_BOUND ( 'NONE', #61, .T. ) ;
#173 = DIRECTION ( 'NONE',  ( 0.0000000000000000000, 0.0000000000000000000, 1.000000000000000000 ) ) ;
#174 = STYLED_ITEM ( 'NONE', ( #241 ), #732 ) ;
#175 = PLANE ( 'NONE',  #1032 ) ;
#176 = PLANE ( 'NONE',  #560 ) ;
#177 = CARTESIAN_POINT ( 'NONE',  ( 0.0000000000000000000, 0.0000000000000000000, 0.0000000000000000000 ) ) ;
#178 =( LENGTH_UNIT ( ) NAMED_UNIT ( * ) SI_UNIT ( .MILLI., .METRE. ) );
#179 = CARTESIAN_POINT ( 'NONE',  ( -4.199999999999999300, 1.499999999999999600, 2.799999999999999800 ) ) ;
#180 = ORIENTED_EDGE ( 'NONE', *, *, #201, .T. ) ;
#181 = DIRECTION ( 'NONE',  ( -0.0000000000000000000, 1.000000000000000000, -0.0000000000000000000 ) ) ;
#182 = DIRECTION ( 'NONE',  ( 1.000000000000000000, 0.0000000000000000000, 0.0000000000000000000 ) ) ;
#183 = CARTESIAN_POINT ( 'NONE',  ( 1.520000000000000500, -8.783095189484532400, 2.250000000000000000 ) ) ;
#184 = ORIENTED_EDGE ( 'NONE', *, *, #555, .T. ) ;
#185 = FILL_AREA_STYLE ('',( #645 ) ) ;
#186 = DIRECTION ( 'NONE',  ( 1.734723475976807100E-015, 1.000000000000000000, -0.0000000000000000000 ) ) ;
#187 = ORIENTED_EDGE ( 'NONE', *, *, #1076, .F. ) ;
#188 = SHAPE_DEFINITION_REPRESENTATION ( #309, #1146 ) ;
#189 = PLANE ( 'NONE',  #787 ) ;
#190 = CARTESIAN_POINT ( 'NONE',  ( -4.199999999999999300, 1.499999999999999600, 3.000000000000000000 ) ) ;
#191 = CARTESIAN_POINT ( 'NONE',  ( 1.020000000000000000, -8.783095189484532400, 2.250000000000000000 ) ) ;
#192 = FILL_AREA_STYLE_COLOUR ( '', #814 ) ;
#193 = FACE_OUTER_BOUND ( 'NONE', #302, .T. ) ;
#194 = EDGE_CURVE ( 'NONE', #823, #418, #644, .T. ) ;
#195 = DIRECTION ( 'NONE',  ( -1.000000000000000000, 1.155557966632344500E-030, 0.0000000000000000000 ) ) ;
#196 = VECTOR ( 'NONE', #1106, 1000.000000000000000 ) ;
#197 = ORIENTED_EDGE ( 'NONE', *, *, #70, .T. ) ;
#198 = PLANE ( 'NONE',  #230 ) ;
#199 = CARTESIAN_POINT ( 'NONE',  ( 5.799999999999998900, 10.16000000000000000, 3.000000000000000000 ) ) ;
#200 = DIRECTION ( 'NONE',  ( 0.0000000000000000000, 0.0000000000000000000, 1.000000000000000000 ) ) ;
#201 = EDGE_CURVE ( 'NONE', #475, #1119, #672, .T. ) ;
#202 = ADVANCED_FACE ( 'NONE', ( #367 ), #264, .T. ) ;
#203 = CARTESIAN_POINT ( 'NONE',  ( 1.020000000000000000, -4.100000000000000500, 2.250000000000000000 ) ) ;
#204 = VERTEX_POINT ( 'NONE', #905 ) ;
#205 = DIRECTION ( 'NONE',  ( 1.000000000000000000, -0.0000000000000000000, -0.0000000000000000000 ) ) ;
#206 = CARTESIAN_POINT ( 'NONE',  ( 5.299999999999998900, 0.4999999999999987200, -3.000000000000000000 ) ) ;
#207 = ORIENTED_EDGE ( 'NONE', *, *, #865, .F. ) ;
#208 = MANIFOLD_SOLID_BREP ( 'Pin[1]', #815 ) ;
#209 = EDGE_CURVE ( 'NONE', #1119, #475, #773, .T. ) ;
#210 = EDGE_CURVE ( 'NONE', #1130, #404, #479, .T. ) ;
#211 = VERTEX_POINT ( 'NONE', #380 ) ;
#212 = PRESENTATION_LAYER_ASSIGNMENT (  '', '', ( #680 ) ) ;
#213 = ADVANCED_FACE ( 'NONE', ( #489 ), #1174, .F. ) ;
#214 = DIRECTION ( 'NONE',  ( -1.000000000000000000, 0.0000000000000000000, -2.891205793294681400E-015 ) ) ;
#215 = EDGE_LOOP ( 'NONE', ( #128, #355, #569, #4 ) ) ;
#216 = LINE ( 'NONE', #550, #226 ) ;
#217 = ORIENTED_EDGE ( 'NONE', *, *, #1165, .T. ) ;
#218 = PLANE ( 'NONE',  #104 ) ;
#219 = EDGE_CURVE ( 'NONE', #1132, #636, #1019, .T. ) ;
#220 = ADVANCED_FACE ( 'NONE', ( #244 ), #1, .F. ) ;
#221 = ORIENTED_EDGE ( 'NONE', *, *, #435, .F. ) ;
#222 = ORIENTED_EDGE ( 'NONE', *, *, #673, .T. ) ;
#223 = EDGE_CURVE ( 'NONE', #322, #36, #1070, .T. ) ;
#224 = FACE_OUTER_BOUND ( 'NONE', #687, .T. ) ;
#225 = VECTOR ( 'NONE', #186, 1000.000000000000000 ) ;
#226 = VECTOR ( 'NONE', #634, 1000.000000000000000 ) ;
#227 = STYLED_ITEM ( 'NONE', ( #298 ), #686 ) ;
#228 = ORIENTED_EDGE ( 'NONE', *, *, #511, .F. ) ;
#229 = ORIENTED_EDGE ( 'NONE', *, *, #456, .F. ) ;
#230 = AXIS2_PLACEMENT_3D ( 'NONE', #924, #474, #385 ) ;
#231 = LINE ( 'NONE', #705, #407 ) ;
#232 = COLOUR_RGB ( '',0.7921568627450980000, 0.8196078431372548800, 0.9333333333333333500 ) ;
#233 = ORIENTED_EDGE ( 'NONE', *, *, #1133, .T. ) ;
#234 = DIRECTION ( 'NONE',  ( 1.000000000000000000, 0.0000000000000000000, 0.0000000000000000000 ) ) ;
#235 =( GEOMETRIC_REPRESENTATION_CONTEXT ( 3 ) GLOBAL_UNCERTAINTY_ASSIGNED_CONTEXT ( ( #751 ) ) GLOBAL_UNIT_ASSIGNED_CONTEXT ( ( #909, #8, #95 ) ) REPRESENTATION_CONTEXT ( 'NONE', 'WORKASPACE' ) );
#236 = ORIENTED_EDGE ( 'NONE', *, *, #219, .T. ) ;
#237 = DIRECTION ( 'NONE',  ( 1.000000000000000000, 0.0000000000000000000, 0.0000000000000000000 ) ) ;
#238 = ORIENTED_EDGE ( 'NONE', *, *, #332, .F. ) ;
#239 = DIRECTION ( 'NONE',  ( 1.000000000000000000, 1.734723475976807100E-015, -0.0000000000000000000 ) ) ;
#240 = ORIENTED_EDGE ( 'NONE', *, *, #1058, .F. ) ;
#241 = PRESENTATION_STYLE_ASSIGNMENT (( #439 ) ) ;
#242 = CARTESIAN_POINT ( 'NONE',  ( -3.559999999999999600, -8.783095189484532400, 2.250000000000000000 ) ) ;
#243 = CARTESIAN_POINT ( 'NONE',  ( 5.299999999999999800, -1.250937729805010500E-015, 3.000000000000000000 ) ) ;
#244 = FACE_OUTER_BOUND ( 'NONE', #754, .T. ) ;
#245 =( NAMED_UNIT ( * ) PLANE_ANGLE_UNIT ( ) SI_UNIT ( $, .RADIAN. ) );
#246 = EDGE_CURVE ( 'NONE', #823, #867, #384, .T. ) ;
#247 = ORIENTED_EDGE ( 'NONE', *, *, #1018, .F. ) ;
#248 = VERTEX_POINT ( 'NONE', #278 ) ;
#249 = CARTESIAN_POINT ( 'NONE',  ( 3.559999999999999600, -4.100000000000000500, 2.250000000000000000 ) ) ;
#250 = VECTOR ( 'NONE', #875, 1000.000000000000000 ) ;
#251 = CARTESIAN_POINT ( 'NONE',  ( -5.299999999999998900, -1.250937729805011100E-015, -3.000000000000000000 ) ) ;
#252 = DIRECTION ( 'NONE',  ( -1.000000000000000000, -0.0000000000000000000, -0.0000000000000000000 ) ) ;
#253 = AXIS2_PLACEMENT_3D ( 'NONE', #358, #700, #363 ) ;
#254 = LINE ( 'NONE', #371, #955 ) ;
#255 = LINE ( 'NONE', #1115, #681 ) ;
#256 = DIRECTION ( 'NONE',  ( -0.0000000000000000000, -0.0000000000000000000, -1.000000000000000000 ) ) ;
#257 = VECTOR ( 'NONE', #653, 1000.000000000000000 ) ;
#258 = DIRECTION ( 'NONE',  ( 0.0000000000000000000, -1.000000000000000000, 0.0000000000000000000 ) ) ;
#259 = CARTESIAN_POINT ( 'NONE',  ( 5.799999999999998900, 10.16000000000000000, -3.000000000000000000 ) ) ;
#260 = CARTESIAN_POINT ( 'NONE',  ( -4.199999999999999300, 1.499999999999999600, 3.000000000000000000 ) ) ;
#261 = CARTESIAN_POINT ( 'NONE',  ( 5.799999999999998900, -1.250937729805011100E-015, -3.000000000000000000 ) ) ;
#262 = CARTESIAN_POINT ( 'NONE',  ( -1.019999999999999600, -4.100000000000000500, 2.250000000000000000 ) ) ;
#263 = ORIENTED_EDGE ( 'NONE', *, *, #980, .T. ) ;
#264 = PLANE ( 'NONE',  #766 ) ;
#265 = DIRECTION ( 'NONE',  ( 1.000000000000000000, 0.0000000000000000000, 0.0000000000000000000 ) ) ;
#266 = EDGE_LOOP ( 'NONE', ( #1123, #1047, #996, #779 ) ) ;
#267 = CARTESIAN_POINT ( 'NONE',  ( -4.060000000000000500, -4.100000000000000500, 2.250000000000000000 ) ) ;
#268 = VERTEX_POINT ( 'NONE', #646 ) ;
#269 = VERTEX_POINT ( 'NONE', #107 ) ;
#270 = PRESENTATION_STYLE_ASSIGNMENT (( #500 ) ) ;
#271 = CARTESIAN_POINT ( 'NONE',  ( 5.799999999999998900, 10.16000000000000000, 3.000000000000000000 ) ) ;
#272 = FILL_AREA_STYLE ('',( #6 ) ) ;
#273 = VECTOR ( 'NONE', #514, 1000.000000000000000 ) ;
#274 = CARTESIAN_POINT ( 'NONE',  ( 1.019999999999999100, 0.4999999999999987200, 1.950000000000000200 ) ) ;
#275 = LINE ( 'NONE', #632, #110 ) ;
#276 = DIRECTION ( 'NONE',  ( -1.000000000000000000, 0.0000000000000000000, -2.891205793294681400E-015 ) ) ;
#277 = CARTESIAN_POINT ( 'NONE',  ( -1.019999999999998700, -8.783095189484532400, 1.950000000000000200 ) ) ;
#278 = CARTESIAN_POINT ( 'NONE',  ( -3.559999999999999600, 0.4999999999999987200, 2.250000000000000000 ) ) ;
#279 = EDGE_CURVE ( 'NONE', #36, #269, #546, .T. ) ;
#280 = DIRECTION ( 'NONE',  ( 0.0000000000000000000, -1.000000000000000000, 0.0000000000000000000 ) ) ;
#281 = CARTESIAN_POINT ( 'NONE',  ( -1.520000000000000000, 0.4999999999999987200, 2.250000000000000000 ) ) ;
#282 = PLANE ( 'NONE',  #31 ) ;
#283 = DIRECTION ( 'NONE',  ( -0.0000000000000000000, -0.0000000000000000000, -1.000000000000000000 ) ) ;
#284 = DIRECTION ( 'NONE',  ( -2.891205793294681400E-015, 0.0000000000000000000, 1.000000000000000000 ) ) ;
#285 = VERTEX_POINT ( 'NONE', #1107 ) ;
#286 = PLANE ( 'NONE',  #117 ) ;
#287 = ORIENTED_EDGE ( 'NONE', *, *, #1043, .T. ) ;
#288 = AXIS2_PLACEMENT_3D ( 'NONE', #967, #425, #1080 ) ;
#289 = ADVANCED_FACE ( 'NONE', ( #832 ), #742, .F. ) ;
#290 = DIRECTION ( 'NONE',  ( -0.0000000000000000000, -0.0000000000000000000, 1.000000000000000000 ) ) ;
#291 = ORIENTED_EDGE ( 'NONE', *, *, #148, .T. ) ;
#292 = VECTOR ( 'NONE', #920, 1000.000000000000000 ) ;
#293 = VECTOR ( 'NONE', #959, 1000.000000000000000 ) ;
#294 = DIRECTION ( 'NONE',  ( 1.000000000000000000, 0.0000000000000000000, 0.0000000000000000000 ) ) ;
#295 =( NAMED_UNIT ( * ) SI_UNIT ( $, .STERADIAN. ) SOLID_ANGLE_UNIT ( ) );
#296 = CARTESIAN_POINT ( 'NONE',  ( -5.799999999999998900, 10.16000000000000000, 3.000000000000000000 ) ) ;
#297 = VECTOR ( 'NONE', #181, 1000.000000000000000 ) ;
#298 = PRESENTATION_STYLE_ASSIGNMENT (( #160 ) ) ;
#299 = VECTOR ( 'NONE', #14, 1000.000000000000000 ) ;
#300 = DIRECTION ( 'NONE',  ( -2.891205793294681400E-015, 0.0000000000000000000, 1.000000000000000000 ) ) ;
#301 = AXIS2_PLACEMENT_3D ( 'NONE', #1006, #173, #810 ) ;
#302 = EDGE_LOOP ( 'NONE', ( #450, #725, #591, #81, #951, #776, #291, #913 ) ) ;
#303 = ORIENTED_EDGE ( 'NONE', *, *, #163, .T. ) ;
#304 = ADVANCED_FACE ( 'NONE', ( #316 ), #467, .F. ) ;
#305 = VERTEX_POINT ( 'NONE', #637 ) ;
#306 = LINE ( 'NONE', #281, #138 ) ;
#307 = LINE ( 'NONE', #812, #1128 ) ;
#308 = PRESENTATION_STYLE_ASSIGNMENT (( #622 ) ) ;
#309 = PRODUCT_DEFINITION_SHAPE ( 'NONE', 'NONE',  #881 ) ;
#310 = ORIENTED_EDGE ( 'NONE', *, *, #720, .T. ) ;
#311 = ORIENTED_EDGE ( 'NONE', *, *, #744, .T. ) ;
#312 = ORIENTED_EDGE ( 'NONE', *, *, #223, .T. ) ;
#313 = LINE ( 'NONE', #718, #292 ) ;
#314 = EDGE_CURVE ( 'NONE', #329, #987, #307, .T. ) ;
#315 = CYLINDRICAL_SURFACE ( 'NONE', #752, 0.5000000000000000000 ) ;
#316 = FACE_OUTER_BOUND ( 'NONE', #765, .T. ) ;
#317 = DIRECTION ( 'NONE',  ( 2.891205793294681400E-015, -3.340955887615256400E-045, -1.000000000000000000 ) ) ;
#318 = FACE_OUTER_BOUND ( 'NONE', #962, .T. ) ;
#319 = PRESENTATION_LAYER_ASSIGNMENT (  '', '', ( #365 ) ) ;
#320 = ORIENTED_EDGE ( 'NONE', *, *, #35, .F. ) ;
#321 = PLANE ( 'NONE',  #567 ) ;
#322 = VERTEX_POINT ( 'NONE', #1001 ) ;
#323 = EDGE_LOOP ( 'NONE', ( #361, #562, #312, #1049 ) ) ;
#324 = ORIENTED_EDGE ( 'NONE', *, *, #701, .T. ) ;
#325 = VECTOR ( 'NONE', #455, 1000.000000000000000 ) ;
#326 = CARTESIAN_POINT ( 'NONE',  ( -4.199999999999999300, 1.499999999999999600, 2.799999999999999800 ) ) ;
#327 = ORIENTED_EDGE ( 'NONE', *, *, #1029, .T. ) ;
#328 = VECTOR ( 'NONE', #379, 1000.000000000000000 ) ;
#329 = VERTEX_POINT ( 'NONE', #85 ) ;
#330 = DIRECTION ( 'NONE',  ( 1.000000000000000000, 0.0000000000000000000, -0.0000000000000000000 ) ) ;
#331 =( NAMED_UNIT ( * ) PLANE_ANGLE_UNIT ( ) SI_UNIT ( $, .RADIAN. ) );
#332 = EDGE_CURVE ( 'NONE', #1114, #602, #52, .T. ) ;
#333 = AXIS2_PLACEMENT_3D ( 'NONE', #606, #714, #523 ) ;
#334 = CARTESIAN_POINT ( 'NONE',  ( 3.559999999999998700, 0.4999999999999987200, 1.950000000000000200 ) ) ;
#335 = CLOSED_SHELL ( 'NONE', ( #486, #928, #28, #101, #304, #490 ) ) ;
#336 = PLANE ( 'NONE',  #1020 ) ;
#337 = EDGE_LOOP ( 'NONE', ( #899, #850, #221, #554 ) ) ;
#338 = CARTESIAN_POINT ( 'NONE',  ( 1.520000000000001400, -4.100000000000000500, 1.950000000000000200 ) ) ;
#339 = ORIENTED_EDGE ( 'NONE', *, *, #456, .T. ) ;
#340 = CARTESIAN_POINT ( 'NONE',  ( -1.520000000000000900, -4.100000000000000500, 1.950000000000000200 ) ) ;
#341 = PLANE ( 'NONE',  #446 ) ;
#342 = CARTESIAN_POINT ( 'NONE',  ( -1.019999999999999600, 0.4999999999999987200, 2.250000000000000000 ) ) ;
#343 = VERTEX_POINT ( 'NONE', #165 ) ;
#344 = CIRCLE ( 'NONE', #465, 0.5000000000000000000 ) ;
#345 = VECTOR ( 'NONE', #1074, 1000.000000000000000 ) ;
#346 = AXIS2_PLACEMENT_3D ( 'NONE', #1151, #520, #1161 ) ;
#347 = CARTESIAN_POINT ( 'NONE',  ( -1.019999999999999600, 0.4999999999999987200, 2.250000000000000000 ) ) ;
#348 = FACE_BOUND ( 'NONE', #919, .T. ) ;
#349 = CARTESIAN_POINT ( 'NONE',  ( 5.799999999999998900, -1.250937729805011100E-015, 3.000000000000000000 ) ) ;
#350 = COLOUR_RGB ( '',1.000000000000000000, 1.000000000000000000, 1.000000000000000000 ) ;
#351 = LINE ( 'NONE', #191, #113 ) ;
#352 =( LENGTH_UNIT ( ) NAMED_UNIT ( * ) SI_UNIT ( .MILLI., .METRE. ) );
#353 = DIRECTION ( 'NONE',  ( 0.0000000000000000000, 0.0000000000000000000, -1.000000000000000000 ) ) ;
#354 = CARTESIAN_POINT ( 'NONE',  ( -5.299999999999998000, 0.4999999999999987200, -3.000000000000000000 ) ) ;
#355 = ORIENTED_EDGE ( 'NONE', *, *, #927, .T. ) ;
#356 = ORIENTED_EDGE ( 'NONE', *, *, #781, .F. ) ;
#357 = AXIS2_PLACEMENT_3D ( 'NONE', #410, #1149, #698 ) ;
#358 = CARTESIAN_POINT ( 'NONE',  ( -4.199999999999999300, 1.499999999999999600, 2.799999999999999800 ) ) ;
#359 = ORIENTED_EDGE ( 'NONE', *, *, #12, .T. ) ;
#360 = PLANE ( 'NONE',  #71 ) ;
#361 = ORIENTED_EDGE ( 'NONE', *, *, #497, .F. ) ;
#362 = VECTOR ( 'NONE', #162, 1000.000000000000000 ) ;
#363 = DIRECTION ( 'NONE',  ( 1.000000000000000000, 0.0000000000000000000, 0.0000000000000000000 ) ) ;
#364 = CARTESIAN_POINT ( 'NONE',  ( -5.299999999999998000, 0.4999999999999987200, 3.000000000000000000 ) ) ;
#365 = STYLED_ITEM ( 'NONE', ( #1138 ), #600 ) ;
#366 = CARTESIAN_POINT ( 'NONE',  ( -4.199999999999999300, 1.499999999999999600, 2.799999999999999800 ) ) ;
#367 = FACE_OUTER_BOUND ( 'NONE', #1121, .T. ) ;
#368 = DIRECTION ( 'NONE',  ( 1.000000000000000000, -0.0000000000000000000, -0.0000000000000000000 ) ) ;
#369 = CARTESIAN_POINT ( 'NONE',  ( 1.019999999999999100, -8.783095189484532400, 1.950000000000000200 ) ) ;
#370 = PLANE ( 'NONE',  #536 ) ;
#371 = CARTESIAN_POINT ( 'NONE',  ( 5.299999999999999800, -1.250937729805010500E-015, 3.000000000000000000 ) ) ;
#372 = DIRECTION ( 'NONE',  ( -0.0000000000000000000, -0.0000000000000000000, 1.000000000000000000 ) ) ;
#373 = CARTESIAN_POINT ( 'NONE',  ( 5.799999999999998900, -1.250937729805011100E-015, 3.000000000000000000 ) ) ;
#374 = DIRECTION ( 'NONE',  ( -0.0000000000000000000, 1.000000000000000000, -0.0000000000000000000 ) ) ;
#375 = EDGE_LOOP ( 'NONE', ( #57, #411, #1034, #108 ) ) ;
#376 = EDGE_LOOP ( 'NONE', ( #45, #1064, #1162, #303 ) ) ;
#377 = DIRECTION ( 'NONE',  ( 1.155557966632344500E-030, 1.000000000000000000, -0.0000000000000000000 ) ) ;
#378 = CLOSED_SHELL ( 'NONE', ( #412, #761, #769, #952, #775, #566 ) ) ;
#379 = DIRECTION ( 'NONE',  ( -0.0000000000000000000, 1.000000000000000000, -0.0000000000000000000 ) ) ;
#380 = CARTESIAN_POINT ( 'NONE',  ( 4.060000000000000500, 0.4999999999999987200, 2.250000000000000000 ) ) ;
#381 = FACE_OUTER_BOUND ( 'NONE', #459, .T. ) ;
#382 = EDGE_CURVE ( 'NONE', #49, #13, #749, .T. ) ;
#383 = ADVANCED_FACE ( 'NONE', ( #508 ), #176, .F. ) ;
#384 = LINE ( 'NONE', #364, #225 ) ;
#385 = DIRECTION ( 'NONE',  ( 0.0000000000000000000, 0.0000000000000000000, 1.000000000000000000 ) ) ;
#386 = ORIENTED_EDGE ( 'NONE', *, *, #403, .F. ) ;
#387 = CARTESIAN_POINT ( 'NONE',  ( -3.559999999999998700, -4.100000000000000500, 1.950000000000000200 ) ) ;
#388 = CARTESIAN_POINT ( 'NONE',  ( -5.799999999999998900, 10.16000000000000000, 3.000000000000000000 ) ) ;
#389 = EDGE_CURVE ( 'NONE', #285, #743, #1030, .T. ) ;
#390 = DIRECTION ( 'NONE',  ( -1.000000000000000000, -0.0000000000000000000, -0.0000000000000000000 ) ) ;
#391 = ADVANCED_FACE ( 'NONE', ( #1153 ), #161, .F. ) ;
#392 = CARTESIAN_POINT ( 'NONE',  ( -1.520000000000000900, -8.783095189484532400, 1.950000000000000200 ) ) ;
#393 = PRESENTATION_LAYER_ASSIGNMENT (  '', '', ( #227 ) ) ;
#394 = CARTESIAN_POINT ( 'NONE',  ( 5.299999999999998900, 0.4999999999999987200, -3.000000000000000000 ) ) ;
#395 = LINE ( 'NONE', #973, #1039 ) ;
#396 = VECTOR ( 'NONE', #839, 1000.000000000000000 ) ;
#397 = VECTOR ( 'NONE', #974, 1000.000000000000000 ) ;
#398 = ADVANCED_FACE ( 'NONE', ( #348, #193 ), #454, .F. ) ;
#399 = VERTEX_POINT ( 'NONE', #274 ) ;
#400 = ORIENTED_EDGE ( 'NONE', *, *, #134, .F. ) ;
#401 = ORIENTED_EDGE ( 'NONE', *, *, #511, .T. ) ;
#402 = AXIS2_PLACEMENT_3D ( 'NONE', #1160, #449, #1079 ) ;
#403 = EDGE_CURVE ( 'NONE', #1114, #979, #428, .T. ) ;
#404 = VERTEX_POINT ( 'NONE', #3 ) ;
#405 = LINE ( 'NONE', #813, #944 ) ;
#406 = VECTOR ( 'NONE', #871, 1000.000000000000000 ) ;
#407 = VECTOR ( 'NONE', #73, 1000.000000000000000 ) ;
#408 = ORIENTED_EDGE ( 'NONE', *, *, #1117, .F. ) ;
#409 = AXIS2_PLACEMENT_3D ( 'NONE', #699, #610, #615 ) ;
#410 = CARTESIAN_POINT ( 'NONE',  ( -4.199999999999999300, 1.499999999999999600, 2.799999999999999800 ) ) ;
#411 = ORIENTED_EDGE ( 'NONE', *, *, #1043, .F. ) ;
#412 = ADVANCED_FACE ( 'NONE', ( #1004 ), #1163, .F. ) ;
#413 = VERTEX_POINT ( 'NONE', #626 ) ;
#414 = LINE ( 'NONE', #527, #1088 ) ;
#415 = LINE ( 'NONE', #296, #257 ) ;
#416 = AXIS2_PLACEMENT_3D ( 'NONE', #177, #966, #234 ) ;
#417 = AXIS2_PLACEMENT_3D ( 'NONE', #532, #537, #7 ) ;
#418 = VERTEX_POINT ( 'NONE', #251 ) ;
#419 = CARTESIAN_POINT ( 'NONE',  ( -5.799999999999998900, 10.16000000000000000, -3.000000000000000000 ) ) ;
#420 = CARTESIAN_POINT ( 'NONE',  ( 5.299999999999999800, -1.250937729805010500E-015, 3.000000000000000000 ) ) ;
#421 = VERTEX_POINT ( 'NONE', #261 ) ;
#422 = APPLICATION_PROTOCOL_DEFINITION ( 'draft international standard', 'automotive_design', 1998, #510 ) ;
#423 = CARTESIAN_POINT ( 'NONE',  ( 1.520000000000001400, -8.783095189484532400, 1.950000000000000200 ) ) ;
#424 = ORIENTED_EDGE ( 'NONE', *, *, #748, .F. ) ;
#425 = DIRECTION ( 'NONE',  ( 0.0000000000000000000, 0.0000000000000000000, 1.000000000000000000 ) ) ;
#426 = FACE_OUTER_BOUND ( 'NONE', #24, .T. ) ;
#427 = SURFACE_SIDE_STYLE ('',( #84 ) ) ;
#428 = LINE ( 'NONE', #800, #297 ) ;
#429 = UNCERTAINTY_MEASURE_WITH_UNIT (LENGTH_MEASURE( 1.000000000000000100E-005 ), #120, 'distance_accuracy_value', 'NONE');
#430 = PRESENTATION_STYLE_ASSIGNMENT (( #656 ) ) ;
#431 = CARTESIAN_POINT ( 'NONE',  ( 4.060000000000000500, -8.783095189484532400, 2.250000000000000000 ) ) ;
#432 = VECTOR ( 'NONE', #559, 1000.000000000000000 ) ;
#433 = DIRECTION ( 'NONE',  ( 0.0000000000000000000, 0.0000000000000000000, 1.000000000000000000 ) ) ;
#434 = CARTESIAN_POINT ( 'NONE',  ( -1.520000000000000000, -4.100000000000000500, 2.250000000000000000 ) ) ;
#435 = EDGE_CURVE ( 'NONE', #525, #823, #231, .T. ) ;
#436 = FILL_AREA_STYLE ('',( #72 ) ) ;
#437 = AXIS2_PLACEMENT_3D ( 'NONE', #183, #276, #1097 ) ;
#438 = ORIENTED_EDGE ( 'NONE', *, *, #932, .F. ) ;
#439 = SURFACE_STYLE_USAGE ( .BOTH. , #898 ) ;
#440 = CARTESIAN_POINT ( 'NONE',  ( 1.020000000000000000, 0.4999999999999987200, 2.250000000000000000 ) ) ;
#441 = DIRECTION ( 'NONE',  ( -0.0000000000000000000, -0.0000000000000000000, -1.000000000000000000 ) ) ;
#442 = ORIENTED_EDGE ( 'NONE', *, *, #1156, .F. ) ;
#443 = AXIS2_PLACEMENT_3D ( 'NONE', #811, #906, #67 ) ;
#444 = ORIENTED_EDGE ( 'NONE', *, *, #575, .F. ) ;
#445 = EDGE_CURVE ( 'NONE', #867, #786, #65, .T. ) ;
#446 = AXIS2_PLACEMENT_3D ( 'NONE', #326, #777, #330 ) ;
#447 = DIRECTION ( 'NONE',  ( -2.891205793294681400E-015, 0.0000000000000000000, 1.000000000000000000 ) ) ;
#448 = DIRECTION ( 'NONE',  ( 1.155557966632344500E-030, 1.000000000000000000, -0.0000000000000000000 ) ) ;
#449 = DIRECTION ( 'NONE',  ( -0.0000000000000000000, 0.0000000000000000000, 1.000000000000000000 ) ) ;
#450 = ORIENTED_EDGE ( 'NONE', *, *, #435, .T. ) ;
#451 = UNCERTAINTY_MEASURE_WITH_UNIT (LENGTH_MEASURE( 1.000000000000000100E-005 ), #352, 'distance_accuracy_value', 'NONE');
#452 = CARTESIAN_POINT ( 'NONE',  ( -4.199999999999999300, 1.499999999999999600, 3.000000000000000000 ) ) ;
#453 = DIRECTION ( 'NONE',  ( 1.000000000000000000, 0.0000000000000000000, 0.0000000000000000000 ) ) ;
#454 = PLANE ( 'NONE',  #141 ) ;
#455 = DIRECTION ( 'NONE',  ( -0.0000000000000000000, 1.000000000000000000, -0.0000000000000000000 ) ) ;
#456 = EDGE_CURVE ( 'NONE', #960, #421, #153, .T. ) ;
#457 = DIRECTION ( 'NONE',  ( 0.0000000000000000000, 0.0000000000000000000, -1.000000000000000000 ) ) ;
#458 = CARTESIAN_POINT ( 'NONE',  ( 3.559999999999999600, -4.100000000000000500, 2.250000000000000000 ) ) ;
#459 = EDGE_LOOP ( 'NONE', ( #233, #311 ) ) ;
#460 = SURFACE_SIDE_STYLE ('',( #796 ) ) ;
#461 = ORIENTED_EDGE ( 'NONE', *, *, #957, .T. ) ;
#462 = EDGE_CURVE ( 'NONE', #975, #399, #611, .T. ) ;
#463 = CARTESIAN_POINT ( 'NONE',  ( -4.699999999999998400, 1.499999999999999600, 2.799999999999999800 ) ) ;
#464 = FACE_OUTER_BOUND ( 'NONE', #540, .T. ) ;
#465 = AXIS2_PLACEMENT_3D ( 'NONE', #190, #627, #1087 ) ;
#466 = CARTESIAN_POINT ( 'NONE',  ( -5.799999999999998900, -1.250937729805011100E-015, 3.000000000000000000 ) ) ;
#467 = PLANE ( 'NONE',  #825 ) ;
#468 = EDGE_CURVE ( 'NONE', #322, #798, #32, .T. ) ;
#469 = DIRECTION ( 'NONE',  ( 1.000000000000000000, 0.0000000000000000000, 0.0000000000000000000 ) ) ;
#470 = ADVANCED_FACE ( 'NONE', ( #1108 ), #904, .F. ) ;
#471 = DIRECTION ( 'NONE',  ( -1.000000000000000000, 1.155557966632344500E-030, 0.0000000000000000000 ) ) ;
#472 = CARTESIAN_POINT ( 'NONE',  ( 1.020000000000000000, -4.100000000000000500, 2.250000000000000000 ) ) ;
#473 = ORIENTED_EDGE ( 'NONE', *, *, #201, .F. ) ;
#474 = DIRECTION ( 'NONE',  ( 0.0000000000000000000, 1.000000000000000000, -0.0000000000000000000 ) ) ;
#475 = VERTEX_POINT ( 'NONE', #463 ) ;
#476 = DIRECTION ( 'NONE',  ( -0.0000000000000000000, 1.000000000000000000, -0.0000000000000000000 ) ) ;
#477 = VECTOR ( 'NONE', #265, 1000.000000000000000 ) ;
#478 = EDGE_CURVE ( 'NONE', #636, #211, #275, .T. ) ;
#479 = LINE ( 'NONE', #539, #642 ) ;
#480 = DIRECTION ( 'NONE',  ( -0.0000000000000000000, -0.0000000000000000000, -1.000000000000000000 ) ) ;
#481 = ORIENTED_EDGE ( 'NONE', *, *, #219, .F. ) ;
#482 = FILL_AREA_STYLE ('',( #23 ) ) ;
#483 = AXIS2_PLACEMENT_3D ( 'NONE', #87, #912, #284 ) ;
#484 = ORIENTED_EDGE ( 'NONE', *, *, #518, .F. ) ;
#485 = ORIENTED_EDGE ( 'NONE', *, *, #148, .F. ) ;
#486 = ADVANCED_FACE ( 'NONE', ( #584 ), #189, .F. ) ;
#487 = ORIENTED_EDGE ( 'NONE', *, *, #763, .T. ) ;
#488 = VECTOR ( 'NONE', #968, 1000.000000000000000 ) ;
#489 = FACE_OUTER_BOUND ( 'NONE', #1014, .T. ) ;
#490 = ADVANCED_FACE ( 'NONE', ( #1042 ), #828, .F. ) ;
#491 = ORIENTED_EDGE ( 'NONE', *, *, #223, .F. ) ;
#492 = CARTESIAN_POINT ( 'NONE',  ( 3.559999999999998700, -4.100000000000000500, 1.950000000000000200 ) ) ;
#493 = ORIENTED_EDGE ( 'NONE', *, *, #1077, .T. ) ;
#494 = FACE_OUTER_BOUND ( 'NONE', #376, .T. ) ;
#495 = LINE ( 'NONE', #1007, #573 ) ;
#496 = VERTEX_POINT ( 'NONE', #728 ) ;
#497 = EDGE_CURVE ( 'NONE', #798, #269, #495, .T. ) ;
#498 = CARTESIAN_POINT ( 'NONE',  ( -5.299999999999998900, -1.250937729805011100E-015, 3.000000000000000000 ) ) ;
#499 = AXIS2_PLACEMENT_3D ( 'NONE', #373, #102, #195 ) ;
#500 = SURFACE_STYLE_USAGE ( .BOTH. , #427 ) ;
#501 = CLOSED_SHELL ( 'NONE', ( #1027, #935, #557, #41, #837, #470, #572, #213, #857, #398, #11, #764, #202 ) ) ;
#502 = DIRECTION ( 'NONE',  ( -0.0000000000000000000, 0.0000000000000000000, 1.000000000000000000 ) ) ;
#503 = EDGE_LOOP ( 'NONE', ( #538, #1098, #481, #820 ) ) ;
#504 = DIRECTION ( 'NONE',  ( 0.0000000000000000000, 0.0000000000000000000, -1.000000000000000000 ) ) ;
#505 = EDGE_LOOP ( 'NONE', ( #665, #707, #82, #792 ) ) ;
#506 = VECTOR ( 'NONE', #986, 1000.000000000000000 ) ;
#507 = CARTESIAN_POINT ( 'NONE',  ( -4.060000000000000500, -4.100000000000000500, 2.250000000000000000 ) ) ;
#508 = FACE_OUTER_BOUND ( 'NONE', #503, .T. ) ;
#509 = SURFACE_STYLE_FILL_AREA ( #272 ) ;
#510 = APPLICATION_CONTEXT ( 'automotive_design' ) ;
#511 = EDGE_CURVE ( 'NONE', #329, #960, #254, .T. ) ;
#512 = UNCERTAINTY_MEASURE_WITH_UNIT (LENGTH_MEASURE( 1.000000000000000100E-005 ), #152, 'distance_accuracy_value', 'NONE');
#513 = AXIS2_PLACEMENT_3D ( 'NONE', #1096, #91, #182 ) ;
#514 = DIRECTION ( 'NONE',  ( -0.0000000000000000000, 1.000000000000000000, -0.0000000000000000000 ) ) ;
#515 = DIRECTION ( 'NONE',  ( 0.0000000000000000000, 0.0000000000000000000, -1.000000000000000000 ) ) ;
#516 = EDGE_CURVE ( 'NONE', #712, #1134, #709, .T. ) ;
#517 = CARTESIAN_POINT ( 'NONE',  ( 5.299999999999999800, -1.250937729805010500E-015, -3.000000000000000000 ) ) ;
#518 = EDGE_CURVE ( 'NONE', #987, #654, #1171, .T. ) ;
#519 = ORIENTED_EDGE ( 'NONE', *, *, #1077, .F. ) ;
#520 = DIRECTION ( 'NONE',  ( 0.0000000000000000000, 0.0000000000000000000, -1.000000000000000000 ) ) ;
#521 = CARTESIAN_POINT ( 'NONE',  ( 4.060000000000000500, -4.100000000000000500, 2.250000000000000000 ) ) ;
#522 = ORIENTED_EDGE ( 'NONE', *, *, #744, .F. ) ;
#523 = DIRECTION ( 'NONE',  ( 1.000000000000000000, 0.0000000000000000000, 0.0000000000000000000 ) ) ;
#524 = EDGE_CURVE ( 'NONE', #607, #211, #530, .T. ) ;
#525 = VERTEX_POINT ( 'NONE', #466 ) ;
#526 = AXIS2_PLACEMENT_3D ( 'NONE', #243, #239, #789 ) ;
#527 = CARTESIAN_POINT ( 'NONE',  ( 5.799999999999998900, -1.250937729805011100E-015, 3.000000000000000000 ) ) ;
#528 = VECTOR ( 'NONE', #883, 1000.000000000000000 ) ;
#529 = CARTESIAN_POINT ( 'NONE',  ( 1.520000000000000500, -4.100000000000000500, 2.250000000000000000 ) ) ;
#530 = LINE ( 'NONE', #918, #88 ) ;
#531 = ORIENTED_EDGE ( 'NONE', *, *, #663, .T. ) ;
#532 = CARTESIAN_POINT ( 'NONE',  ( -4.199999999999999300, 1.499999999999999600, 2.799999999999999800 ) ) ;
#533 = EDGE_CURVE ( 'NONE', #603, #285, #848, .T. ) ;
#534 = MANIFOLD_SOLID_BREP ( 'Housing', #501 ) ;
#535 = DIRECTION ( 'NONE',  ( 0.0000000000000000000, 0.0000000000000000000, 1.000000000000000000 ) ) ;
#536 = AXIS2_PLACEMENT_3D ( 'NONE', #96, #734, #921 ) ;
#537 = DIRECTION ( 'NONE',  ( 0.0000000000000000000, 0.0000000000000000000, 1.000000000000000000 ) ) ;
#538 = ORIENTED_EDGE ( 'NONE', *, *, #90, .F. ) ;
#539 = CARTESIAN_POINT ( 'NONE',  ( 1.520000000000000500, 0.4999999999999987200, 2.250000000000000000 ) ) ;
#540 = EDGE_LOOP ( 'NONE', ( #958, #858, #1013, #745 ) ) ;
#541 = DIRECTION ( 'NONE',  ( -1.000000000000000000, 1.155557966632344500E-030, 0.0000000000000000000 ) ) ;
#542 = EDGE_LOOP ( 'NONE', ( #808, #473 ) ) ;
#543 = ORIENTED_EDGE ( 'NONE', *, *, #593, .F. ) ;
#544 = CARTESIAN_POINT ( 'NONE',  ( -5.799999999999998900, 10.16000000000000000, 3.000000000000000000 ) ) ;
#545 =( GEOMETRIC_REPRESENTATION_CONTEXT ( 3 ) GLOBAL_UNCERTAINTY_ASSIGNED_CONTEXT ( ( #429 ) ) GLOBAL_UNIT_ASSIGNED_CONTEXT ( ( #120, #116, #753 ) ) REPRESENTATION_CONTEXT ( 'NONE', 'WORKASPACE' ) );
#546 = CIRCLE ( 'NONE', #697, 0.5000000000000000000 ) ;
#547 = PLANE ( 'NONE',  #19 ) ;
#548 = CARTESIAN_POINT ( 'NONE',  ( -4.060000000000000500, 0.4999999999999987200, 2.250000000000000000 ) ) ;
#549 = DIRECTION ( 'NONE',  ( 1.000000000000000000, 0.0000000000000000000, 0.0000000000000000000 ) ) ;
#550 = CARTESIAN_POINT ( 'NONE',  ( -5.799999999999998900, -1.250937729805011100E-015, 3.000000000000000000 ) ) ;
#551 = ORIENTED_EDGE ( 'NONE', *, *, #27, .F. ) ;
#552 = PLANE ( 'NONE',  #619 ) ;
#553 = CARTESIAN_POINT ( 'NONE',  ( -3.699999999999998800, 1.499999999999999600, 2.799999999999999800 ) ) ;
#554 = ORIENTED_EDGE ( 'NONE', *, *, #1046, .T. ) ;
#555 = EDGE_CURVE ( 'NONE', #146, #960, #621, .T. ) ;
#556 = CIRCLE ( 'NONE', #950, 0.5000000000000000000 ) ;
#557 = ADVANCED_FACE ( 'NONE', ( #922 ), #1093, .F. ) ;
#558 = CARTESIAN_POINT ( 'NONE',  ( -5.299999999999998000, 0.4999999999999987200, 3.000000000000000000 ) ) ;
#559 = DIRECTION ( 'NONE',  ( -0.0000000000000000000, -0.0000000000000000000, -1.000000000000000000 ) ) ;
#560 = AXIS2_PLACEMENT_3D ( 'NONE', #989, #448, #1095 ) ;
#561 = SURFACE_STYLE_FILL_AREA ( #1066 ) ;
#562 = ORIENTED_EDGE ( 'NONE', *, *, #468, .F. ) ;
#563 = CARTESIAN_POINT ( 'NONE',  ( 1.520000000000000500, -4.100000000000000500, 2.250000000000000000 ) ) ;
#564 = CARTESIAN_POINT ( 'NONE',  ( 5.299999999999998900, 0.4999999999999987200, 3.000000000000000000 ) ) ;
#565 = DIRECTION ( 'NONE',  ( -0.0000000000000000000, -0.0000000000000000000, -1.000000000000000000 ) ) ;
#566 = ADVANCED_FACE ( 'NONE', ( #1129 ), #552, .F. ) ;
#567 = AXIS2_PLACEMENT_3D ( 'NONE', #498, #1137, #592 ) ;
#568 = SURFACE_SIDE_STYLE ('',( #938 ) ) ;
#569 = ORIENTED_EDGE ( 'NONE', *, *, #403, .T. ) ;
#570 = ORIENTED_EDGE ( 'NONE', *, *, #983, .F. ) ;
#571 = VECTOR ( 'NONE', #890, 1000.000000000000000 ) ;
#572 = ADVANCED_FACE ( 'NONE', ( #886 ), #547, .F. ) ;
#573 = VECTOR ( 'NONE', #290, 1000.000000000000000 ) ;
#574 = FACE_OUTER_BOUND ( 'NONE', #933, .T. ) ;
#575 = EDGE_CURVE ( 'NONE', #343, #949, #171, .T. ) ;
#576 = ORIENTED_EDGE ( 'NONE', *, *, #382, .T. ) ;
#577 = VERTEX_POINT ( 'NONE', #746 ) ;
#578 = PRODUCT_DEFINITION_FORMATION_WITH_SPECIFIED_SOURCE ( 'ANY', '', #144, .NOT_KNOWN. ) ;
#579 = PRESENTATION_LAYER_ASSIGNMENT (  '', '', ( #1142 ) ) ;
#580 = EDGE_LOOP ( 'NONE', ( #324, #1089, #484, #878 ) ) ;
#581 = ORIENTED_EDGE ( 'NONE', *, *, #1131, .T. ) ;
#582 = VECTOR ( 'NONE', #441, 1000.000000000000000 ) ;
#583 = FACE_OUTER_BOUND ( 'NONE', #542, .T. ) ;
#584 = FACE_OUTER_BOUND ( 'NONE', #375, .T. ) ;
#585 = AXIS2_PLACEMENT_3D ( 'NONE', #691, #504, #782 ) ;
#586 = LINE ( 'NONE', #249, #863 ) ;
#587 = ORIENTED_EDGE ( 'NONE', *, *, #844, .F. ) ;
#588 = FILL_AREA_STYLE ('',( #624 ) ) ;
#589 = EDGE_CURVE ( 'NONE', #47, #418, #612, .T. ) ;
#590 = ORIENTED_EDGE ( 'NONE', *, *, #1058, .T. ) ;
#591 = ORIENTED_EDGE ( 'NONE', *, *, #445, .T. ) ;
#592 = DIRECTION ( 'NONE',  ( 0.0000000000000000000, 0.0000000000000000000, 1.000000000000000000 ) ) ;
#593 = EDGE_CURVE ( 'NONE', #603, #496, #255, .T. ) ;
#594 = ORIENTED_EDGE ( 'NONE', *, *, #720, .F. ) ;
#595 = VECTOR ( 'NONE', #159, 1000.000000000000000 ) ;
#596 = DIRECTION ( 'NONE',  ( 1.000000000000000000, 0.0000000000000000000, 0.0000000000000000000 ) ) ;
#597 = LINE ( 'NONE', #58, #112 ) ;
#598 = VECTOR ( 'NONE', #317, 1000.000000000000000 ) ;
#599 = DIRECTION ( 'NONE',  ( -2.891205793294681400E-015, 0.0000000000000000000, -1.000000000000000000 ) ) ;
#600 = MANIFOLD_SOLID_BREP ( 'Pin[4]', #1063 ) ;
#601 = ORIENTED_EDGE ( 'NONE', *, *, #631, .T. ) ;
#602 = VERTEX_POINT ( 'NONE', #735 ) ;
#603 = VERTEX_POINT ( 'NONE', #387 ) ;
#604 = DIRECTION ( 'NONE',  ( 1.000000000000000000, 0.0000000000000000000, -2.891205793294681400E-015 ) ) ;
#605 = DIRECTION ( 'NONE',  ( 0.0000000000000000000, 0.0000000000000000000, -1.000000000000000000 ) ) ;
#606 = CARTESIAN_POINT ( 'NONE',  ( -4.199999999999999300, 1.499999999999999600, 2.799999999999999800 ) ) ;
#607 = VERTEX_POINT ( 'NONE', #741 ) ;
#608 = LINE ( 'NONE', #711, #1015 ) ;
#609 = LINE ( 'NONE', #902, #477 ) ;
#610 = DIRECTION ( 'NONE',  ( 1.000000000000000000, 0.0000000000000000000, -2.891205793294681400E-015 ) ) ;
#611 = LINE ( 'NONE', #440, #131 ) ;
#612 = LINE ( 'NONE', #1099, #1155 ) ;
#613 = ORIENTED_EDGE ( 'NONE', *, *, #1012, .T. ) ;
#614 = DIRECTION ( 'NONE',  ( -2.891205793294681400E-015, 0.0000000000000000000, -1.000000000000000000 ) ) ;
#615 = DIRECTION ( 'NONE',  ( -2.891205793294681400E-015, 0.0000000000000000000, -1.000000000000000000 ) ) ;
#616 = DIRECTION ( 'NONE',  ( 1.000000000000000000, -1.155557966632344500E-030, -0.0000000000000000000 ) ) ;
#617 = DIRECTION ( 'NONE',  ( -0.0000000000000000000, 1.000000000000000000, -0.0000000000000000000 ) ) ;
#618 = DIRECTION ( 'NONE',  ( 2.891205793294681400E-015, -3.340955887615256400E-045, -1.000000000000000000 ) ) ;
#619 = AXIS2_PLACEMENT_3D ( 'NONE', #106, #114, #471 ) ;
#620 = CARTESIAN_POINT ( 'NONE',  ( -1.019999999999999600, -8.783095189484532400, 2.250000000000000000 ) ) ;
#621 = LINE ( 'NONE', #824, #196 ) ;
#622 = SURFACE_STYLE_USAGE ( .BOTH. , #1003 ) ;
#623 = VECTOR ( 'NONE', #915, 1000.000000000000000 ) ;
#624 = FILL_AREA_STYLE_COLOUR ( '', #1083 ) ;
#625 = DIRECTION ( 'NONE',  ( -0.0000000000000000000, 1.000000000000000000, -0.0000000000000000000 ) ) ;
#626 = CARTESIAN_POINT ( 'NONE',  ( 3.559999999999999600, 0.4999999999999987200, 2.250000000000000000 ) ) ;
#627 = DIRECTION ( 'NONE',  ( 0.0000000000000000000, 0.0000000000000000000, 1.000000000000000000 ) ) ;
#628 = EDGE_LOOP ( 'NONE', ( #150, #930, #100, #103 ) ) ;
#629 = DIRECTION ( 'NONE',  ( 1.000000000000000000, 0.0000000000000000000, 0.0000000000000000000 ) ) ;
#630 = ORIENTED_EDGE ( 'NONE', *, *, #1068, .T. ) ;
#631 = EDGE_CURVE ( 'NONE', #305, #146, #155, .T. ) ;
#632 = CARTESIAN_POINT ( 'NONE',  ( 4.060000000000000500, -8.783095189484532400, 2.250000000000000000 ) ) ;
#633 = CARTESIAN_POINT ( 'NONE',  ( -4.199999999999999300, 1.499999999999999600, 3.000000000000000000 ) ) ;
#634 = DIRECTION ( 'NONE',  ( -0.0000000000000000000, -1.000000000000000000, -0.0000000000000000000 ) ) ;
#635 = MECHANICAL_DESIGN_GEOMETRIC_PRESENTATION_REPRESENTATION (  '', ( #947 ), #771 ) ;
#636 = VERTEX_POINT ( 'NONE', #1022 ) ;
#637 = CARTESIAN_POINT ( 'NONE',  ( -5.299999999999998000, 0.4999999999999987200, -3.000000000000000000 ) ) ;
#638 = MECHANICAL_DESIGN_GEOMETRIC_PRESENTATION_REPRESENTATION (  '', ( #1142 ), #884 ) ;
#639 = MANIFOLD_SOLID_BREP ( 'Pin[2]', #378 ) ;
#640 = LINE ( 'NONE', #696, #406 ) ;
#641 = DIRECTION ( 'NONE',  ( -0.0000000000000000000, 1.000000000000000000, -0.0000000000000000000 ) ) ;
#642 = VECTOR ( 'NONE', #1090, 1000.000000000000000 ) ;
#643 = VECTOR ( 'NONE', #476, 1000.000000000000000 ) ;
#644 = LINE ( 'NONE', #840, #68 ) ;
#645 = FILL_AREA_STYLE_COLOUR ( '', #678 ) ;
#646 = CARTESIAN_POINT ( 'NONE',  ( 1.020000000000000000, -4.100000000000000500, 2.250000000000000000 ) ) ;
#647 = ADVANCED_FACE ( 'NONE', ( #797 ), #218, .F. ) ;
#648 = EDGE_CURVE ( 'NONE', #204, #525, #216, .T. ) ;
#649 = AXIS2_PLACEMENT_3D ( 'NONE', #985, #258, #353 ) ;
#650 = DIRECTION ( 'NONE',  ( -0.0000000000000000000, -0.0000000000000000000, -1.000000000000000000 ) ) ;
#651 = ORIENTED_EDGE ( 'NONE', *, *, #1165, .F. ) ;
#652 = DIRECTION ( 'NONE',  ( -1.000000000000000000, 1.155557966632344500E-030, 0.0000000000000000000 ) ) ;
#653 = DIRECTION ( 'NONE',  ( -1.000000000000000000, -0.0000000000000000000, -0.0000000000000000000 ) ) ;
#654 = VERTEX_POINT ( 'NONE', #737 ) ;
#655 = LINE ( 'NONE', #977, #345 ) ;
#656 = SURFACE_STYLE_USAGE ( .BOTH. , #568 ) ;
#657 = EDGE_CURVE ( 'NONE', #1119, #1026, #849, .T. ) ;
#658 = FACE_OUTER_BOUND ( 'NONE', #841, .T. ) ;
#659 = LINE ( 'NONE', #1112, #1031 ) ;
#660 = ADVANCED_FACE ( 'NONE', ( #658 ), #695, .F. ) ;
#661 = EDGE_CURVE ( 'NONE', #987, #421, #414, .T. ) ;
#662 = PRESENTATION_LAYER_ASSIGNMENT (  '', '', ( #947 ) ) ;
#663 = EDGE_CURVE ( 'NONE', #892, #1132, #586, .T. ) ;
#664 = AXIS2_PLACEMENT_3D ( 'NONE', #970, #604, #614 ) ;
#665 = ORIENTED_EDGE ( 'NONE', *, *, #673, .F. ) ;
#666 = ADVANCED_FACE ( 'NONE', ( #1071 ), #54, .F. ) ;
#667 = EDGE_LOOP ( 'NONE', ( #543, #804, #78, #1035 ) ) ;
#668 = FACE_OUTER_BOUND ( 'NONE', #1023, .T. ) ;
#669 = EDGE_LOOP ( 'NONE', ( #247, #236, #1009, #263 ) ) ;
#670 = LINE ( 'NONE', #56, #250 ) ;
#671 = VECTOR ( 'NONE', #541, 1000.000000000000000 ) ;
#672 = CIRCLE ( 'NONE', #301, 0.5000000000000000000 ) ;
#673 = EDGE_CURVE ( 'NONE', #413, #757, #597, .T. ) ;
#674 = ORIENTED_EDGE ( 'NONE', *, *, #43, .F. ) ;
#675 = ORIENTED_EDGE ( 'NONE', *, *, #145, .T. ) ;
#676 = ORIENTED_EDGE ( 'NONE', *, *, #332, .T. ) ;
#677 = LINE ( 'NONE', #242, #934 ) ;
#678 = COLOUR_RGB ( '',0.2509803921568627400, 0.2509803921568627400, 0.2509803921568627400 ) ;
#679 = CARTESIAN_POINT ( 'NONE',  ( 5.799999999999998900, 10.16000000000000000, 3.000000000000000000 ) ) ;
#680 = STYLED_ITEM ( 'NONE', ( #430 ), #639 ) ;
#681 = VECTOR ( 'NONE', #625, 1000.000000000000000 ) ;
#682 = FACE_OUTER_BOUND ( 'NONE', #164, .T. ) ;
#683 = APPLICATION_PROTOCOL_DEFINITION ( 'draft international standard', 'automotive_design', 1998, #693 ) ;
#684 = PLANE ( 'NONE',  #443 ) ;
#685 = ORIENTED_EDGE ( 'NONE', *, *, #382, .F. ) ;
#686 = MANIFOLD_SOLID_BREP ( 'Pin 1 Mark', #1057 ) ;
#687 = EDGE_LOOP ( 'NONE', ( #184, #228, #767, #807 ) ) ;
#688 = DIRECTION ( 'NONE',  ( -2.891205793294681400E-015, 0.0000000000000000000, -1.000000000000000000 ) ) ;
#689 = VERTEX_POINT ( 'NONE', #347 ) ;
#690 = VECTOR ( 'NONE', #729, 1000.000000000000000 ) ;
#691 = CARTESIAN_POINT ( 'NONE',  ( 3.559999999999999600, -8.783095189484532400, 2.250000000000000000 ) ) ;
#692 = FACE_OUTER_BOUND ( 'NONE', #897, .T. ) ;
#693 = APPLICATION_CONTEXT ( 'automotive_design' ) ;
#694 = VECTOR ( 'NONE', #1118, 1000.000000000000000 ) ;
#695 = PLANE ( 'NONE',  #664 ) ;
#696 = CARTESIAN_POINT ( 'NONE',  ( -5.799999999999998900, 10.16000000000000000, -3.000000000000000000 ) ) ;
#697 = AXIS2_PLACEMENT_3D ( 'NONE', #452, #200, #549 ) ;
#698 = DIRECTION ( 'NONE',  ( 1.000000000000000000, 0.0000000000000000000, 0.0000000000000000000 ) ) ;
#699 = CARTESIAN_POINT ( 'NONE',  ( -1.520000000000000000, -8.783095189484532400, 2.250000000000000000 ) ) ;
#700 = DIRECTION ( 'NONE',  ( 0.0000000000000000000, 0.0000000000000000000, 1.000000000000000000 ) ) ;
#701 = EDGE_CURVE ( 'NONE', #421, #1101, #1150, .T. ) ;
#702 = ORIENTED_EDGE ( 'NONE', *, *, #210, .T. ) ;
#703 = PLANE ( 'NONE',  #953 ) ;
#704 = CARTESIAN_POINT ( 'NONE',  ( -4.699999999999998400, 1.499999999999999600, 2.799999999999999800 ) ) ;
#705 = CARTESIAN_POINT ( 'NONE',  ( -5.299999999999998900, -1.250937729805011100E-015, 3.000000000000000000 ) ) ;
#706 = CARTESIAN_POINT ( 'NONE',  ( 1.520000000000000500, -8.783095189484532400, 2.250000000000000000 ) ) ;
#707 = ORIENTED_EDGE ( 'NONE', *, *, #980, .F. ) ;
#708 = CARTESIAN_POINT ( 'NONE',  ( 5.799999999999998900, 10.16000000000000000, -3.000000000000000000 ) ) ;
#709 = LINE ( 'NONE', #392, #328 ) ;
#710 = CARTESIAN_POINT ( 'NONE',  ( 0.0000000000000000000, 0.4999999999999987200, 0.0000000000000000000 ) ) ;
#711 = CARTESIAN_POINT ( 'NONE',  ( -4.060000000000001400, 0.4999999999999987200, 1.950000000000000200 ) ) ;
#712 = VERTEX_POINT ( 'NONE', #340 ) ;
#713 = CARTESIAN_POINT ( 'NONE',  ( 0.0000000000000000000, 0.0000000000000000000, 3.000000000000000000 ) ) ;
#714 = DIRECTION ( 'NONE',  ( -0.0000000000000000000, -0.0000000000000000000, 1.000000000000000000 ) ) ;
#715 =( NAMED_UNIT ( * ) SI_UNIT ( $, .STERADIAN. ) SOLID_ANGLE_UNIT ( ) );
#716 = ORIENTED_EDGE ( 'NONE', *, *, #468, .T. ) ;
#717 = DIRECTION ( 'NONE',  ( 1.000000000000000000, 0.0000000000000000000, -0.0000000000000000000 ) ) ;
#718 = CARTESIAN_POINT ( 'NONE',  ( -5.799999999999998900, -1.250937729805011100E-015, -3.000000000000000000 ) ) ;
#719 = VERTEX_POINT ( 'NONE', #788 ) ;
#720 = EDGE_CURVE ( 'NONE', #602, #248, #677, .T. ) ;
#721 = SURFACE_SIDE_STYLE ('',( #873 ) ) ;
#722 = CARTESIAN_POINT ( 'NONE',  ( -4.199999999999999300, 1.499999999999999600, 2.799999999999999800 ) ) ;
#723 = STYLED_ITEM ( 'NONE', ( #1085 ), #534 ) ;
#724 = ORIENTED_EDGE ( 'NONE', *, *, #16, .F. ) ;
#725 = ORIENTED_EDGE ( 'NONE', *, *, #246, .T. ) ;
#726 = PRODUCT_DEFINITION_CONTEXT ( 'detailed design', #693, 'design' ) ;
#727 = LINE ( 'NONE', #995, #582 ) ;
#728 = CARTESIAN_POINT ( 'NONE',  ( -3.559999999999998700, 0.4999999999999987200, 1.950000000000000200 ) ) ;
#729 = DIRECTION ( 'NONE',  ( 1.000000000000000000, -1.155557966632344500E-030, 0.0000000000000000000 ) ) ;
#730 = PLANE ( 'NONE',  #437 ) ;
#731 = LINE ( 'NONE', #679, #488 ) ;
#732 = MANIFOLD_SOLID_BREP ( 'Pin[3]', #335 ) ;
#733 = CARTESIAN_POINT ( 'NONE',  ( 5.799999999999998900, -4.100000000000000500, 3.000000000000000000 ) ) ;
#734 = DIRECTION ( 'NONE',  ( 1.000000000000000000, 0.0000000000000000000, -2.891205793294681400E-015 ) ) ;
#735 = CARTESIAN_POINT ( 'NONE',  ( -3.559999999999999600, -4.100000000000000500, 2.250000000000000000 ) ) ;
#736 = DIRECTION ( 'NONE',  ( 0.0000000000000000000, -1.000000000000000000, 0.0000000000000000000 ) ) ;
#737 = CARTESIAN_POINT ( 'NONE',  ( 5.799999999999998900, 10.16000000000000000, 3.000000000000000000 ) ) ;
#738 = ORIENTED_EDGE ( 'NONE', *, *, #194, .T. ) ;
#739 = CARTESIAN_POINT ( 'NONE',  ( -3.699999999999998800, 1.499999999999999600, 3.000000000000000000 ) ) ;
#740 = ADVANCED_FACE ( 'NONE', ( #464 ), #703, .F. ) ;
#741 = CARTESIAN_POINT ( 'NONE',  ( 4.060000000000001400, 0.4999999999999987200, 1.950000000000000200 ) ) ;
#742 = PLANE ( 'NONE',  #846 ) ;
#743 = VERTEX_POINT ( 'NONE', #1158 ) ;
#744 = EDGE_CURVE ( 'NONE', #916, #1026, #1136, .T. ) ;
#745 = ORIENTED_EDGE ( 'NONE', *, *, #524, .T. ) ;
#746 = CARTESIAN_POINT ( 'NONE',  ( 4.060000000000001400, -4.100000000000000500, 1.950000000000000200 ) ) ;
#747 = DIRECTION ( 'NONE',  ( -2.891205793294681400E-015, 0.0000000000000000000, -1.000000000000000000 ) ) ;
#748 = EDGE_CURVE ( 'NONE', #1053, #689, #167, .T. ) ;
#749 = LINE ( 'NONE', #805, #671 ) ;
#750 = LINE ( 'NONE', #388, #432 ) ;
#751 = UNCERTAINTY_MEASURE_WITH_UNIT (LENGTH_MEASURE( 1.000000000000000100E-005 ), #909, 'distance_accuracy_value', 'NONE');
#752 = AXIS2_PLACEMENT_3D ( 'NONE', #366, #994, #453 ) ;
#753 =( NAMED_UNIT ( * ) SI_UNIT ( $, .STERADIAN. ) SOLID_ANGLE_UNIT ( ) );
#754 = EDGE_LOOP ( 'NONE', ( #594, #581, #999, #826 ) ) ;
#755 = ADVANCED_FACE ( 'NONE', ( #381 ), #175, .T. ) ;
#756 = ORIENTED_EDGE ( 'NONE', *, *, #516, .F. ) ;
#757 = VERTEX_POINT ( 'NONE', #334 ) ;
#758 = VERTEX_POINT ( 'NONE', #793 ) ;
#759 = LINE ( 'NONE', #1164, #1148 ) ;
#760 = VECTOR ( 'NONE', #433, 1000.000000000000000 ) ;
#761 = ADVANCED_FACE ( 'NONE', ( #829 ), #803, .F. ) ;
#762 = COLOUR_RGB ( '',0.7921568627450980000, 0.8196078431372548800, 0.9333333333333333500 ) ;
#763 = EDGE_CURVE ( 'NONE', #399, #1130, #609, .T. ) ;
#764 = ADVANCED_FACE ( 'NONE', ( #945 ), #315, .F. ) ;
#765 = EDGE_LOOP ( 'NONE', ( #651, #1038, #34, #157 ) ) ;
#766 = AXIS2_PLACEMENT_3D ( 'NONE', #179, #816, #1100 ) ;
#767 = ORIENTED_EDGE ( 'NONE', *, *, #852, .F. ) ;
#768 = ORIENTED_EDGE ( 'NONE', *, *, #932, .T. ) ;
#769 = ADVANCED_FACE ( 'NONE', ( #692 ), #360, .F. ) ;
#770 = LINE ( 'NONE', #914, #325 ) ;
#771 =( GEOMETRIC_REPRESENTATION_CONTEXT ( 3 ) GLOBAL_UNCERTAINTY_ASSIGNED_CONTEXT ( ( #63 ) ) GLOBAL_UNIT_ASSIGNED_CONTEXT ( ( #785, #331, #143 ) ) REPRESENTATION_CONTEXT ( 'NONE', 'WORKASPACE' ) );
#772 = VECTOR ( 'NONE', #158, 1000.000000000000000 ) ;
#773 = CIRCLE ( 'NONE', #94, 0.5000000000000000000 ) ;
#774 = LINE ( 'NONE', #135, #598 ) ;
#775 = ADVANCED_FACE ( 'NONE', ( #954 ), #1159, .F. ) ;
#776 = ORIENTED_EDGE ( 'NONE', *, *, #518, .T. ) ;
#777 = DIRECTION ( 'NONE',  ( 0.0000000000000000000, 0.0000000000000000000, 1.000000000000000000 ) ) ;
#778 = ORIENTED_EDGE ( 'NONE', *, *, #589, .F. ) ;
#779 = ORIENTED_EDGE ( 'NONE', *, *, #1117, .T. ) ;
#780 = ORIENTED_EDGE ( 'NONE', *, *, #961, .F. ) ;
#781 = EDGE_CURVE ( 'NONE', #475, #916, #870, .T. ) ;
#782 = DIRECTION ( 'NONE',  ( -1.000000000000000000, 0.0000000000000000000, -0.0000000000000000000 ) ) ;
#783 = MECHANICAL_DESIGN_GEOMETRIC_PRESENTATION_REPRESENTATION (  '', ( #227 ), #993 ) ;
#784 = ORIENTED_EDGE ( 'NONE', *, *, #1029, .F. ) ;
#785 =( LENGTH_UNIT ( ) NAMED_UNIT ( * ) SI_UNIT ( .MILLI., .METRE. ) );
#786 = VERTEX_POINT ( 'NONE', #64 ) ;
#787 = AXIS2_PLACEMENT_3D ( 'NONE', #10, #280, #1103 ) ;
#788 = CARTESIAN_POINT ( 'NONE',  ( -1.520000000000000000, -4.100000000000000500, 2.250000000000000000 ) ) ;
#789 = DIRECTION ( 'NONE',  ( -1.734723475976807100E-015, 1.000000000000000000, 0.0000000000000000000 ) ) ;
#790 = ORIENTED_EDGE ( 'NONE', *, *, #851, .F. ) ;
#791 = CARTESIAN_POINT ( 'NONE',  ( -5.799999999999998900, -1.250937729805011100E-015, -3.000000000000000000 ) ) ;
#792 = ORIENTED_EDGE ( 'NONE', *, *, #1068, .F. ) ;
#793 = CARTESIAN_POINT ( 'NONE',  ( -1.520000000000000000, 0.4999999999999987200, 2.250000000000000000 ) ) ;
#794 = VECTOR ( 'NONE', #806, 1000.000000000000000 ) ;
#795 = CARTESIAN_POINT ( 'NONE',  ( -3.699999999999998800, 1.499999999999999600, 3.000000000000000000 ) ) ;
#796 = SURFACE_STYLE_FILL_AREA ( #185 ) ;
#797 = FACE_OUTER_BOUND ( 'NONE', #149, .T. ) ;
#798 = VERTEX_POINT ( 'NONE', #59 ) ;
#799 = EDGE_CURVE ( 'NONE', #636, #577, #900, .T. ) ;
#800 = CARTESIAN_POINT ( 'NONE',  ( -4.060000000000000500, -8.783095189484532400, 2.250000000000000000 ) ) ;
#801 = DIRECTION ( 'NONE',  ( -2.891205793294681400E-015, 0.0000000000000000000, -1.000000000000000000 ) ) ;
#802 = DIRECTION ( 'NONE',  ( -0.0000000000000000000, 1.000000000000000000, -0.0000000000000000000 ) ) ;
#803 = PLANE ( 'NONE',  #1122 ) ;
#804 = ORIENTED_EDGE ( 'NONE', *, *, #533, .T. ) ;
#805 = CARTESIAN_POINT ( 'NONE',  ( 1.019999999999999100, -4.100000000000000500, 1.950000000000000200 ) ) ;
#806 = DIRECTION ( 'NONE',  ( -2.891205793294681400E-015, -0.0000000000000000000, 1.000000000000000000 ) ) ;
#807 = ORIENTED_EDGE ( 'NONE', *, *, #35, .T. ) ;
#808 = ORIENTED_EDGE ( 'NONE', *, *, #209, .F. ) ;
#809 = LINE ( 'NONE', #170, #595 ) ;
#810 = DIRECTION ( 'NONE',  ( 1.000000000000000000, 0.0000000000000000000, 0.0000000000000000000 ) ) ;
#811 = CARTESIAN_POINT ( 'NONE',  ( -1.520000000000000900, -8.783095189484532400, 1.950000000000000200 ) ) ;
#812 = CARTESIAN_POINT ( 'NONE',  ( 5.799999999999998900, -1.250937729805011100E-015, 3.000000000000000000 ) ) ;
#813 = CARTESIAN_POINT ( 'NONE',  ( -3.559999999999999600, -4.100000000000000500, 2.250000000000000000 ) ) ;
#814 = COLOUR_RGB ( '',0.7921568627450980000, 0.8196078431372548800, 0.9333333333333333500 ) ;
#815 = CLOSED_SHELL ( 'NONE', ( #289, #666, #220, #941, #33, #647 ) ) ;
#816 = DIRECTION ( 'NONE',  ( 0.0000000000000000000, 0.0000000000000000000, 1.000000000000000000 ) ) ;
#817 = CARTESIAN_POINT ( 'NONE',  ( -3.699999999999998800, 1.499999999999999600, 2.799999999999999800 ) ) ;
#818 = CARTESIAN_POINT ( 'NONE',  ( 1.019999999999999100, -4.100000000000000500, 1.950000000000000200 ) ) ;
#819 = DIRECTION ( 'NONE',  ( -1.000000000000000000, 1.734723475976807100E-015, 0.0000000000000000000 ) ) ;
#820 = ORIENTED_EDGE ( 'NONE', *, *, #663, .F. ) ;
#821 = EDGE_CURVE ( 'NONE', #712, #719, #655, .T. ) ;
#822 = DIRECTION ( 'NONE',  ( -1.000000000000000000, 1.155557966632344500E-030, 0.0000000000000000000 ) ) ;
#823 = VERTEX_POINT ( 'NONE', #889 ) ;
#824 = CARTESIAN_POINT ( 'NONE',  ( 5.299999999999999800, -1.250937729805010500E-015, -3.000000000000000000 ) ) ;
#825 = AXIS2_PLACEMENT_3D ( 'NONE', #1084, #1041, #688 ) ;
#826 = ORIENTED_EDGE ( 'NONE', *, *, #907, .T. ) ;
#827 = LINE ( 'NONE', #1173, #571 ) ;
#828 = PLANE ( 'NONE',  #893 ) ;
#829 = FACE_OUTER_BOUND ( 'NONE', #266, .T. ) ;
#830 =( NAMED_UNIT ( * ) PLANE_ANGLE_UNIT ( ) SI_UNIT ( $, .RADIAN. ) );
#831 = DIRECTION ( 'NONE',  ( 0.0000000000000000000, 0.0000000000000000000, -1.000000000000000000 ) ) ;
#832 = FACE_OUTER_BOUND ( 'NONE', #1144, .T. ) ;
#833 = EDGE_LOOP ( 'NONE', ( #963, #25, #895, #738 ) ) ;
#834 = CARTESIAN_POINT ( 'NONE',  ( 0.0000000000000000000, 0.0000000000000000000, -3.000000000000000000 ) ) ;
#835 = CARTESIAN_POINT ( 'NONE',  ( 1.019999999999999100, -8.783095189484532400, 1.950000000000000200 ) ) ;
#836 = MECHANICAL_DESIGN_GEOMETRIC_PRESENTATION_REPRESENTATION (  '', ( #174 ), #940 ) ;
#837 = ADVANCED_FACE ( 'NONE', ( #224 ), #1067, .F. ) ;
#838 = UNCERTAINTY_MEASURE_WITH_UNIT (LENGTH_MEASURE( 1.000000000000000100E-005 ), #1010, 'distance_accuracy_value', 'NONE');
#839 = DIRECTION ( 'NONE',  ( -1.000000000000000000, 1.155557966632344500E-030, 0.0000000000000000000 ) ) ;
#840 = CARTESIAN_POINT ( 'NONE',  ( -5.299999999999998900, -1.250937729805011100E-015, 3.000000000000000000 ) ) ;
#841 = EDGE_LOOP ( 'NONE', ( #442, #531, #137, #222 ) ) ;
#842 = CARTESIAN_POINT ( 'NONE',  ( -1.019999999999999600, -8.783095189484532400, 2.250000000000000000 ) ) ;
#843 = ORIENTED_EDGE ( 'NONE', *, *, #90, .T. ) ;
#844 = EDGE_CURVE ( 'NONE', #979, #743, #39, .T. ) ;
#845 = ORIENTED_EDGE ( 'NONE', *, *, #657, .T. ) ;
#846 = AXIS2_PLACEMENT_3D ( 'NONE', #98, #736, #831 ) ;
#847 = VECTOR ( 'NONE', #1170, 1000.000000000000000 ) ;
#848 = LINE ( 'NONE', #97, #396 ) ;
#849 = LINE ( 'NONE', #976, #132 ) ;
#850 = ORIENTED_EDGE ( 'NONE', *, *, #194, .F. ) ;
#851 = EDGE_CURVE ( 'NONE', #343, #712, #30, .T. ) ;
#852 = EDGE_CURVE ( 'NONE', #786, #329, #982, .T. ) ;
#853 = ADVANCED_FACE ( 'NONE', ( #1168 ), #44, .F. ) ;
#854 = PRESENTATION_LAYER_ASSIGNMENT (  '', '', ( #174 ) ) ;
#855 = ORIENTED_EDGE ( 'NONE', *, *, #43, .T. ) ;
#856 = ORIENTED_EDGE ( 'NONE', *, *, #1167, .F. ) ;
#857 = ADVANCED_FACE ( 'NONE', ( #494 ), #336, .F. ) ;
#858 = ORIENTED_EDGE ( 'NONE', *, *, #799, .T. ) ;
#859 = PRESENTATION_LAYER_ASSIGNMENT (  '', '', ( #723 ) ) ;
#860 = CYLINDRICAL_SURFACE ( 'NONE', #513, 0.5000000000000000000 ) ;
#861 = COLOUR_RGB ( '',0.7921568627450980000, 0.8196078431372548800, 0.9333333333333333500 ) ;
#862 = VECTOR ( 'NONE', #368, 1000.000000000000000 ) ;
#863 = VECTOR ( 'NONE', #894, 1000.000000000000000 ) ;
#864 = ORIENTED_EDGE ( 'NONE', *, *, #821, .T. ) ;
#865 = EDGE_CURVE ( 'NONE', #577, #607, #670, .T. ) ;
#866 = EDGE_CURVE ( 'NONE', #654, #1101, #731, .T. ) ;
#867 = VERTEX_POINT ( 'NONE', #1145 ) ;
#868 = ADVANCED_FACE ( 'NONE', ( #583 ), #341, .F. ) ;
#869 = ORIENTED_EDGE ( 'NONE', *, *, #575, .T. ) ;
#870 = LINE ( 'NONE', #704, #760 ) ;
#871 = DIRECTION ( 'NONE',  ( -1.000000000000000000, -0.0000000000000000000, -0.0000000000000000000 ) ) ;
#872 =( GEOMETRIC_REPRESENTATION_CONTEXT ( 3 ) GLOBAL_UNCERTAINTY_ASSIGNED_CONTEXT ( ( #1045 ) ) GLOBAL_UNIT_ASSIGNED_CONTEXT ( ( #178, #911, #92 ) ) REPRESENTATION_CONTEXT ( 'NONE', 'WORKASPACE' ) );
#873 = SURFACE_STYLE_FILL_AREA ( #86 ) ;
#874 = LINE ( 'NONE', #203, #623 ) ;
#875 = DIRECTION ( 'NONE',  ( -0.0000000000000000000, 1.000000000000000000, -0.0000000000000000000 ) ) ;
#876 = EDGE_LOOP ( 'NONE', ( #444, #1036, #992, #327 ) ) ;
#877 = CARTESIAN_POINT ( 'NONE',  ( -1.520000000000000900, -4.100000000000000500, 1.950000000000000200 ) ) ;
#878 = ORIENTED_EDGE ( 'NONE', *, *, #661, .T. ) ;
#879 = VECTOR ( 'NONE', #618, 1000.000000000000000 ) ;
#880 = VECTOR ( 'NONE', #147, 1000.000000000000000 ) ;
#881 = PRODUCT_DEFINITION ( 'UNKNOWN', '', #578, #726 ) ;
#882 = FILL_AREA_STYLE_COLOUR ( '', #350 ) ;
#883 = DIRECTION ( 'NONE',  ( -1.000000000000000000, 1.155557966632344500E-030, 0.0000000000000000000 ) ) ;
#884 =( GEOMETRIC_REPRESENTATION_CONTEXT ( 3 ) GLOBAL_UNCERTAINTY_ASSIGNED_CONTEXT ( ( #51 ) ) GLOBAL_UNIT_ASSIGNED_CONTEXT ( ( #79, #93, #715 ) ) REPRESENTATION_CONTEXT ( 'NONE', 'WORKASPACE' ) );
#885 = VECTOR ( 'NONE', #66, 1000.000000000000000 ) ;
#886 = FACE_OUTER_BOUND ( 'NONE', #580, .T. ) ;
#887 = LINE ( 'NONE', #423, #397 ) ;
#888 =( NAMED_UNIT ( * ) SI_UNIT ( $, .STERADIAN. ) SOLID_ANGLE_UNIT ( ) );
#889 = CARTESIAN_POINT ( 'NONE',  ( -5.299999999999998900, -1.250937729805011100E-015, 3.000000000000000000 ) ) ;
#890 = DIRECTION ( 'NONE',  ( 1.000000000000000000, 0.0000000000000000000, 0.0000000000000000000 ) ) ;
#891 = PRODUCT_RELATED_PRODUCT_CATEGORY ( 'part', '', ( #144 ) ) ;
#892 = VERTEX_POINT ( 'NONE', #1059 ) ;
#893 = AXIS2_PLACEMENT_3D ( 'NONE', #733, #377, #822 ) ;
#894 = DIRECTION ( 'NONE',  ( 2.891205793294681400E-015, -3.340955887615256400E-045, 1.000000000000000000 ) ) ;
#895 = ORIENTED_EDGE ( 'NONE', *, *, #246, .F. ) ;
#896 = CARTESIAN_POINT ( 'NONE',  ( 5.799999999999998900, -1.250937729805011100E-015, -3.000000000000000000 ) ) ;
#897 = EDGE_LOOP ( 'NONE', ( #424, #197, #869, #1147 ) ) ;
#898 = SURFACE_SIDE_STYLE ('',( #18 ) ) ;
#899 = ORIENTED_EDGE ( 'NONE', *, *, #589, .T. ) ;
#900 = LINE ( 'NONE', #521, #772 ) ;
#901 = CARTESIAN_POINT ( 'NONE',  ( 5.299999999999998900, 0.4999999999999987200, 3.000000000000000000 ) ) ;
#902 = CARTESIAN_POINT ( 'NONE',  ( 1.019999999999999100, 0.4999999999999987200, 1.950000000000000200 ) ) ;
#903 = CYLINDRICAL_SURFACE ( 'NONE', #357, 0.5000000000000000000 ) ;
#904 = PLANE ( 'NONE',  #499 ) ;
#905 = CARTESIAN_POINT ( 'NONE',  ( -5.799999999999998900, 10.16000000000000000, 3.000000000000000000 ) ) ;
#906 = DIRECTION ( 'NONE',  ( -0.0000000000000000000, 0.0000000000000000000, 1.000000000000000000 ) ) ;
#907 = EDGE_CURVE ( 'NONE', #496, #248, #1040, .T. ) ;
#908 = DIRECTION ( 'NONE',  ( 0.0000000000000000000, 0.0000000000000000000, -1.000000000000000000 ) ) ;
#909 =( LENGTH_UNIT ( ) NAMED_UNIT ( * ) SI_UNIT ( .MILLI., .METRE. ) );
#910 = EDGE_LOOP ( 'NONE', ( #339, #1052, #1139, #401 ) ) ;
#911 =( NAMED_UNIT ( * ) PLANE_ANGLE_UNIT ( ) SI_UNIT ( $, .RADIAN. ) );
#912 = DIRECTION ( 'NONE',  ( -1.000000000000000000, 0.0000000000000000000, -2.891205793294681400E-015 ) ) ;
#913 = ORIENTED_EDGE ( 'NONE', *, *, #648, .T. ) ;
#914 = CARTESIAN_POINT ( 'NONE',  ( 3.559999999999998700, -8.783095189484532400, 1.950000000000000200 ) ) ;
#915 = DIRECTION ( 'NONE',  ( 1.000000000000000000, -1.155557966632344500E-030, 0.0000000000000000000 ) ) ;
#916 = VERTEX_POINT ( 'NONE', #1056 ) ;
#917 = LINE ( 'NONE', #77, #847 ) ;
#918 = CARTESIAN_POINT ( 'NONE',  ( 4.060000000000000500, 0.4999999999999987200, 2.250000000000000000 ) ) ;
#919 = EDGE_LOOP ( 'NONE', ( #971, #519 ) ) ;
#920 = DIRECTION ( 'NONE',  ( -0.0000000000000000000, -1.000000000000000000, -0.0000000000000000000 ) ) ;
#921 = DIRECTION ( 'NONE',  ( -2.891205793294681400E-015, 0.0000000000000000000, -1.000000000000000000 ) ) ;
#922 = FACE_OUTER_BOUND ( 'NONE', #833, .T. ) ;
#923 = SURFACE_STYLE_USAGE ( .BOTH. , #460 ) ;
#924 = CARTESIAN_POINT ( 'NONE',  ( 5.299999999999998900, 0.4999999999999987200, 3.000000000000000000 ) ) ;
#925 = DIRECTION ( 'NONE',  ( -1.000000000000000000, 0.0000000000000000000, 0.0000000000000000000 ) ) ;
#926 = DIRECTION ( 'NONE',  ( 0.0000000000000000000, 0.0000000000000000000, 1.000000000000000000 ) ) ;
#927 = EDGE_CURVE ( 'NONE', #285, #1114, #1127, .T. ) ;
#928 = ADVANCED_FACE ( 'NONE', ( #426 ), #139, .F. ) ;
#929 = DIRECTION ( 'NONE',  ( 0.0000000000000000000, 0.0000000000000000000, -1.000000000000000000 ) ) ;
#930 = ORIENTED_EDGE ( 'NONE', *, *, #781, .T. ) ;
#931 = DIRECTION ( 'NONE',  ( -0.0000000000000000000, 1.000000000000000000, -0.0000000000000000000 ) ) ;
#932 = EDGE_CURVE ( 'NONE', #1101, #55, #640, .T. ) ;
#933 = EDGE_LOOP ( 'NONE', ( #778, #856, #438, #1025, #229, #119, #127, #570 ) ) ;
#934 = VECTOR ( 'NONE', #988, 1000.000000000000000 ) ;
#935 = ADVANCED_FACE ( 'NONE', ( #1105 ), #321, .F. ) ;
#936 = CARTESIAN_POINT ( 'NONE',  ( 5.799999999999998900, -4.100000000000000500, 3.000000000000000000 ) ) ;
#937 = VECTOR ( 'NONE', #931, 1000.000000000000000 ) ;
#938 = SURFACE_STYLE_FILL_AREA ( #482 ) ;
#939 = FACE_OUTER_BOUND ( 'NONE', #215, .T. ) ;
#940 =( GEOMETRIC_REPRESENTATION_CONTEXT ( 3 ) GLOBAL_UNCERTAINTY_ASSIGNED_CONTEXT ( ( #451 ) ) GLOBAL_UNIT_ASSIGNED_CONTEXT ( ( #352, #245, #888 ) ) REPRESENTATION_CONTEXT ( 'NONE', 'WORKASPACE' ) );
#941 = ADVANCED_FACE ( 'NONE', ( #1069 ), #1048, .F. ) ;
#942 = ORIENTED_EDGE ( 'NONE', *, *, #497, .T. ) ;
#943 = EDGE_LOOP ( 'NONE', ( #240, #942, #493, #491 ) ) ;
#944 = VECTOR ( 'NONE', #1177, 1000.000000000000000 ) ;
#945 = FACE_OUTER_BOUND ( 'NONE', #323, .T. ) ;
#946 = VECTOR ( 'NONE', #802, 1000.000000000000000 ) ;
#947 = STYLED_ITEM ( 'NONE', ( #270 ), #1146 ) ;
#948 = AXIS2_PLACEMENT_3D ( 'NONE', #544, #997, #1094 ) ;
#949 = VERTEX_POINT ( 'NONE', #972 ) ;
#950 = AXIS2_PLACEMENT_3D ( 'NONE', #633, #1008, #469 ) ;
#951 = ORIENTED_EDGE ( 'NONE', *, *, #314, .T. ) ;
#952 = ADVANCED_FACE ( 'NONE', ( #965 ), #684, .F. ) ;
#953 = AXIS2_PLACEMENT_3D ( 'NONE', #431, #1060, #447 ) ;
#954 = FACE_OUTER_BOUND ( 'NONE', #99, .T. ) ;
#955 = VECTOR ( 'NONE', #283, 1000.000000000000000 ) ;
#956 = EDGE_CURVE ( 'NONE', #949, #689, #130, .T. ) ;
#957 = EDGE_CURVE ( 'NONE', #26, #404, #1000, .T. ) ;
#958 = ORIENTED_EDGE ( 'NONE', *, *, #478, .F. ) ;
#959 = DIRECTION ( 'NONE',  ( -2.891205793294681400E-015, -0.0000000000000000000, 1.000000000000000000 ) ) ;
#960 = VERTEX_POINT ( 'NONE', #517 ) ;
#961 = EDGE_CURVE ( 'NONE', #26, #49, #50, .T. ) ;
#962 = EDGE_LOOP ( 'NONE', ( #674, #576, #217, #487 ) ) ;
#963 = ORIENTED_EDGE ( 'NONE', *, *, #983, .T. ) ;
#964 = CARTESIAN_POINT ( 'NONE',  ( -4.060000000000000500, 0.4999999999999987200, 2.250000000000000000 ) ) ;
#965 = FACE_OUTER_BOUND ( 'NONE', #876, .T. ) ;
#966 = DIRECTION ( 'NONE',  ( 0.0000000000000000000, 0.0000000000000000000, 1.000000000000000000 ) ) ;
#967 = CARTESIAN_POINT ( 'NONE',  ( -4.199999999999999300, 1.499999999999999600, 3.000000000000000000 ) ) ;
#968 = DIRECTION ( 'NONE',  ( -0.0000000000000000000, -0.0000000000000000000, -1.000000000000000000 ) ) ;
#969 = MECHANICAL_DESIGN_GEOMETRIC_PRESENTATION_REPRESENTATION (  '', ( #680 ), #545 ) ;
#970 = CARTESIAN_POINT ( 'NONE',  ( 3.559999999999999600, -8.783095189484532400, 2.250000000000000000 ) ) ;
#971 = ORIENTED_EDGE ( 'NONE', *, *, #279, .F. ) ;
#972 = CARTESIAN_POINT ( 'NONE',  ( -1.019999999999998700, 0.4999999999999987200, 1.950000000000000200 ) ) ;
#973 = CARTESIAN_POINT ( 'NONE',  ( 1.020000000000000000, 0.4999999999999987200, 2.250000000000000000 ) ) ;
#974 = DIRECTION ( 'NONE',  ( -0.0000000000000000000, 1.000000000000000000, -0.0000000000000000000 ) ) ;
#975 = VERTEX_POINT ( 'NONE', #74 ) ;
#976 = CARTESIAN_POINT ( 'NONE',  ( -3.699999999999998800, 1.499999999999999600, 2.799999999999999800 ) ) ;
#977 = CARTESIAN_POINT ( 'NONE',  ( -1.520000000000000000, -4.100000000000000500, 2.250000000000000000 ) ) ;
#978 = DIRECTION ( 'NONE',  ( 1.000000000000000000, 0.0000000000000000000, 0.0000000000000000000 ) ) ;
#979 = VERTEX_POINT ( 'NONE', #60 ) ;
#980 = EDGE_CURVE ( 'NONE', #211, #413, #759, .T. ) ;
#981 = CIRCLE ( 'NONE', #253, 0.5000000000000000000 ) ;
#982 = LINE ( 'NONE', #420, #109 ) ;
#983 = EDGE_CURVE ( 'NONE', #418, #305, #123, .T. ) ;
#984 = VECTOR ( 'NONE', #372, 1000.000000000000000 ) ;
#985 = CARTESIAN_POINT ( 'NONE',  ( 0.0000000000000000000, 0.4999999999999987200, 0.0000000000000000000 ) ) ;
#986 = DIRECTION ( 'NONE',  ( 1.734723475976807100E-015, 1.000000000000000000, -0.0000000000000000000 ) ) ;
#987 = VERTEX_POINT ( 'NONE', #349 ) ;
#988 = DIRECTION ( 'NONE',  ( -0.0000000000000000000, 1.000000000000000000, -0.0000000000000000000 ) ) ;
#989 = CARTESIAN_POINT ( 'NONE',  ( 5.799999999999998900, -4.100000000000000500, 3.000000000000000000 ) ) ;
#990 = CARTESIAN_POINT ( 'NONE',  ( -1.520000000000000000, -8.783095189484532400, 2.250000000000000000 ) ) ;
#991 = DIRECTION ( 'NONE',  ( 1.000000000000000000, -1.155557966632344500E-030, 0.0000000000000000000 ) ) ;
#992 = ORIENTED_EDGE ( 'NONE', *, *, #516, .T. ) ;
#993 =( GEOMETRIC_REPRESENTATION_CONTEXT ( 3 ) GLOBAL_UNCERTAINTY_ASSIGNED_CONTEXT ( ( #512 ) ) GLOBAL_UNIT_ASSIGNED_CONTEXT ( ( #152, #1072, #156 ) ) REPRESENTATION_CONTEXT ( 'NONE', 'WORKASPACE' ) );
#994 = DIRECTION ( 'NONE',  ( -0.0000000000000000000, -0.0000000000000000000, 1.000000000000000000 ) ) ;
#995 = CARTESIAN_POINT ( 'NONE',  ( -5.799999999999998900, -1.250937729805011100E-015, 3.000000000000000000 ) ) ;
#996 = ORIENTED_EDGE ( 'NONE', *, *, #748, .T. ) ;
#997 = DIRECTION ( 'NONE',  ( 0.0000000000000000000, -1.000000000000000000, 0.0000000000000000000 ) ) ;
#998 = ORIENTED_EDGE ( 'NONE', *, *, #145, .F. ) ;
#999 = ORIENTED_EDGE ( 'NONE', *, *, #593, .T. ) ;
#1000 = LINE ( 'NONE', #706, #1054 ) ;
#1001 = CARTESIAN_POINT ( 'NONE',  ( -3.699999999999998800, 1.499999999999999600, 2.799999999999999800 ) ) ;
#1002 = DIRECTION ( 'NONE',  ( -2.891205793294681400E-015, -0.0000000000000000000, 1.000000000000000000 ) ) ;
#1003 = SURFACE_SIDE_STYLE ('',( #509 ) ) ;
#1004 = FACE_OUTER_BOUND ( 'NONE', #121, .T. ) ;
#1005 = CARTESIAN_POINT ( 'NONE',  ( -1.520000000000000900, 0.4999999999999987200, 1.950000000000000200 ) ) ;
#1006 = CARTESIAN_POINT ( 'NONE',  ( -4.199999999999999300, 1.499999999999999600, 2.799999999999999800 ) ) ;
#1007 = CARTESIAN_POINT ( 'NONE',  ( -4.699999999999998400, 1.499999999999999600, 2.799999999999999800 ) ) ;
#1008 = DIRECTION ( 'NONE',  ( 0.0000000000000000000, 0.0000000000000000000, 1.000000000000000000 ) ) ;
#1009 = ORIENTED_EDGE ( 'NONE', *, *, #478, .T. ) ;
#1010 =( LENGTH_UNIT ( ) NAMED_UNIT ( * ) SI_UNIT ( .MILLI., .METRE. ) );
#1011 = CARTESIAN_POINT ( 'NONE',  ( 3.559999999999999600, -4.100000000000000500, 2.250000000000000000 ) ) ;
#1012 = EDGE_CURVE ( 'NONE', #719, #758, #1065, .T. ) ;
#1013 = ORIENTED_EDGE ( 'NONE', *, *, #865, .T. ) ;
#1014 = EDGE_LOOP ( 'NONE', ( #768, #136, #485, #1082 ) ) ;
#1015 = VECTOR ( 'NONE', #978, 1000.000000000000000 ) ;
#1016 = DIRECTION ( 'NONE',  ( -1.734723475976807100E-015, -1.000000000000000000, 0.0000000000000000000 ) ) ;
#1017 = VECTOR ( 'NONE', #617, 1000.000000000000000 ) ;
#1018 = EDGE_CURVE ( 'NONE', #1132, #413, #917, .T. ) ;
#1019 = LINE ( 'NONE', #1011, #9 ) ;
#1020 = AXIS2_PLACEMENT_3D ( 'NONE', #142, #237, #605 ) ;
#1021 = LINE ( 'NONE', #472, #299 ) ;
#1022 = CARTESIAN_POINT ( 'NONE',  ( 4.060000000000000500, -4.100000000000000500, 2.250000000000000000 ) ) ;
#1023 = EDGE_LOOP ( 'NONE', ( #207, #843, #1126, #630 ) ) ;
#1024 = ORIENTED_EDGE ( 'NONE', *, *, #70, .F. ) ;
#1025 = ORIENTED_EDGE ( 'NONE', *, *, #701, .F. ) ;
#1026 = VERTEX_POINT ( 'NONE', #795 ) ;
#1027 = ADVANCED_FACE ( 'NONE', ( #151 ), #29, .F. ) ;
#1028 = LINE ( 'NONE', #369, #62 ) ;
#1029 = EDGE_CURVE ( 'NONE', #1134, #949, #809, .T. ) ;
#1030 = LINE ( 'NONE', #1086, #946 ) ;
#1031 = VECTOR ( 'NONE', #747, 1000.000000000000000 ) ;
#1032 = AXIS2_PLACEMENT_3D ( 'NONE', #260, #80, #717 ) ;
#1033 = ADVANCED_FACE ( 'NONE', ( #668 ), #1154, .F. ) ;
#1034 = ORIENTED_EDGE ( 'NONE', *, *, #210, .F. ) ;
#1035 = ORIENTED_EDGE ( 'NONE', *, *, #1076, .T. ) ;
#1036 = ORIENTED_EDGE ( 'NONE', *, *, #851, .T. ) ;
#1037 = EDGE_LOOP ( 'NONE', ( #685, #780, #724, #400 ) ) ;
#1038 = ORIENTED_EDGE ( 'NONE', *, *, #134, .T. ) ;
#1039 = VECTOR ( 'NONE', #166, 1000.000000000000000 ) ;
#1040 = LINE ( 'NONE', #53, #293 ) ;
#1041 = DIRECTION ( 'NONE',  ( 1.000000000000000000, 0.0000000000000000000, -2.891205793294681400E-015 ) ) ;
#1042 = FACE_OUTER_BOUND ( 'NONE', #1037, .T. ) ;
#1043 = EDGE_CURVE ( 'NONE', #404, #975, #395, .T. ) ;
#1044 = VECTOR ( 'NONE', #650, 1000.000000000000000 ) ;
#1045 = UNCERTAINTY_MEASURE_WITH_UNIT (LENGTH_MEASURE( 1.000000000000000100E-005 ), #178, 'distance_accuracy_value', 'NONE');
#1046 = EDGE_CURVE ( 'NONE', #525, #47, #727, .T. ) ;
#1047 = ORIENTED_EDGE ( 'NONE', *, *, #1113, .T. ) ;
#1048 = PLANE ( 'NONE',  #69 ) ;
#1049 = ORIENTED_EDGE ( 'NONE', *, *, #279, .T. ) ;
#1050 = CARTESIAN_POINT ( 'NONE',  ( -4.060000000000001400, -8.783095189484532400, 1.950000000000000200 ) ) ;
#1051 =( GEOMETRIC_REPRESENTATION_CONTEXT ( 3 ) GLOBAL_UNCERTAINTY_ASSIGNED_CONTEXT ( ( #838 ) ) GLOBAL_UNIT_ASSIGNED_CONTEXT ( ( #1010, #830, #295 ) ) REPRESENTATION_CONTEXT ( 'NONE', 'WORKASPACE' ) );
#1052 = ORIENTED_EDGE ( 'NONE', *, *, #661, .F. ) ;
#1053 = VERTEX_POINT ( 'NONE', #262 ) ;
#1054 = VECTOR ( 'NONE', #1075, 1000.000000000000000 ) ;
#1055 = ORIENTED_EDGE ( 'NONE', *, *, #927, .F. ) ;
#1056 = CARTESIAN_POINT ( 'NONE',  ( -4.699999999999998400, 1.499999999999999600, 3.000000000000000000 ) ) ;
#1057 = CLOSED_SHELL ( 'NONE', ( #1124, #111, #868, #755 ) ) ;
#1058 = EDGE_CURVE ( 'NONE', #798, #322, #981, .T. ) ;
#1059 = CARTESIAN_POINT ( 'NONE',  ( 3.559999999999998700, -4.100000000000000500, 1.950000000000000200 ) ) ;
#1060 = DIRECTION ( 'NONE',  ( -1.000000000000000000, 0.0000000000000000000, -2.891205793294681400E-015 ) ) ;
#1061 = ORIENTED_EDGE ( 'NONE', *, *, #821, .F. ) ;
#1062 = CARTESIAN_POINT ( 'NONE',  ( 1.020000000000000000, -8.783095189484532400, 2.250000000000000000 ) ) ;
#1063 = CLOSED_SHELL ( 'NONE', ( #391, #853, #740, #1033, #660, #383 ) ) ;
#1064 = ORIENTED_EDGE ( 'NONE', *, *, #1046, .F. ) ;
#1065 = LINE ( 'NONE', #990, #362 ) ;
#1066 = FILL_AREA_STYLE ('',( #882 ) ) ;
#1067 = PLANE ( 'NONE',  #526 ) ;
#1068 = EDGE_CURVE ( 'NONE', #757, #607, #827, .T. ) ;
#1069 = FACE_OUTER_BOUND ( 'NONE', #667, .T. ) ;
#1070 = LINE ( 'NONE', #553, #984 ) ;
#1071 = FACE_OUTER_BOUND ( 'NONE', #15, .T. ) ;
#1072 =( NAMED_UNIT ( * ) PLANE_ANGLE_UNIT ( ) SI_UNIT ( $, .RADIAN. ) );
#1073 = VECTOR ( 'NONE', #390, 1000.000000000000000 ) ;
#1074 = DIRECTION ( 'NONE',  ( 2.891205793294681400E-015, -3.340955887615256400E-045, 1.000000000000000000 ) ) ;
#1075 = DIRECTION ( 'NONE',  ( -0.0000000000000000000, 1.000000000000000000, -0.0000000000000000000 ) ) ;
#1076 = EDGE_CURVE ( 'NONE', #743, #496, #608, .T. ) ;
#1077 = EDGE_CURVE ( 'NONE', #269, #36, #344, .T. ) ;
#1078 = DIRECTION ( 'NONE',  ( -2.891205793294681400E-015, 0.0000000000000000000, -1.000000000000000000 ) ) ;
#1079 = DIRECTION ( 'NONE',  ( 1.000000000000000000, 0.0000000000000000000, 0.0000000000000000000 ) ) ;
#1080 = DIRECTION ( 'NONE',  ( 1.000000000000000000, 0.0000000000000000000, 0.0000000000000000000 ) ) ;
#1081 = CARTESIAN_POINT ( 'NONE',  ( -4.060000000000000500, -4.100000000000000500, 2.250000000000000000 ) ) ;
#1082 = ORIENTED_EDGE ( 'NONE', *, *, #866, .T. ) ;
#1083 = COLOUR_RGB ( '',0.7921568627450980000, 0.8196078431372548800, 0.9333333333333333500 ) ;
#1084 = CARTESIAN_POINT ( 'NONE',  ( 1.020000000000000000, -8.783095189484532400, 2.250000000000000000 ) ) ;
#1085 = PRESENTATION_STYLE_ASSIGNMENT (( #923 ) ) ;
#1086 = CARTESIAN_POINT ( 'NONE',  ( -4.060000000000001400, -8.783095189484532400, 1.950000000000000200 ) ) ;
#1087 = DIRECTION ( 'NONE',  ( 1.000000000000000000, 0.0000000000000000000, 0.0000000000000000000 ) ) ;
#1088 = VECTOR ( 'NONE', #256, 1000.000000000000000 ) ;
#1089 = ORIENTED_EDGE ( 'NONE', *, *, #866, .F. ) ;
#1090 = DIRECTION ( 'NONE',  ( -2.891205793294681400E-015, -0.0000000000000000000, 1.000000000000000000 ) ) ;
#1091 = CARTESIAN_POINT ( 'NONE',  ( -1.520000000000000000, -8.783095189484532400, 2.250000000000000000 ) ) ;
#1092 = CARTESIAN_POINT ( 'NONE',  ( 1.520000000000001400, 0.4999999999999987200, 1.950000000000000200 ) ) ;
#1093 = PLANE ( 'NONE',  #124 ) ;
#1094 = DIRECTION ( 'NONE',  ( 0.0000000000000000000, -0.0000000000000000000, -1.000000000000000000 ) ) ;
#1095 = DIRECTION ( 'NONE',  ( -1.000000000000000000, 1.155557966632344500E-030, 0.0000000000000000000 ) ) ;
#1096 = CARTESIAN_POINT ( 'NONE',  ( -4.199999999999999300, 1.499999999999999600, 2.799999999999999800 ) ) ;
#1097 = DIRECTION ( 'NONE',  ( -2.891205793294681400E-015, 0.0000000000000000000, 1.000000000000000000 ) ) ;
#1098 = ORIENTED_EDGE ( 'NONE', *, *, #799, .F. ) ;
#1099 = CARTESIAN_POINT ( 'NONE',  ( -5.299999999999998900, -1.250937729805011100E-015, -3.000000000000000000 ) ) ;
#1100 = DIRECTION ( 'NONE',  ( 1.000000000000000000, 0.0000000000000000000, -0.0000000000000000000 ) ) ;
#1101 = VERTEX_POINT ( 'NONE', #259 ) ;
#1102 = FACE_OUTER_BOUND ( 'NONE', #628, .T. ) ;
#1103 = DIRECTION ( 'NONE',  ( 0.0000000000000000000, 0.0000000000000000000, -1.000000000000000000 ) ) ;
#1104 = DIRECTION ( 'NONE',  ( -1.000000000000000000, -0.0000000000000000000, -0.0000000000000000000 ) ) ;
#1105 = FACE_OUTER_BOUND ( 'NONE', #337, .T. ) ;
#1106 = DIRECTION ( 'NONE',  ( 1.734723475976807100E-015, -1.000000000000000000, -0.0000000000000000000 ) ) ;
#1107 = CARTESIAN_POINT ( 'NONE',  ( -4.060000000000001400, -4.100000000000000500, 1.950000000000000200 ) ) ;
#1108 = FACE_OUTER_BOUND ( 'NONE', #910, .T. ) ;
#1109 = ORIENTED_EDGE ( 'NONE', *, *, #956, .F. ) ;
#1110 = DIRECTION ( 'NONE',  ( -1.000000000000000000, 0.0000000000000000000, -0.0000000000000000000 ) ) ;
#1111 = DIRECTION ( 'NONE',  ( 0.0000000000000000000, 0.0000000000000000000, 1.000000000000000000 ) ) ;
#1112 = CARTESIAN_POINT ( 'NONE',  ( -1.520000000000000000, 0.4999999999999987200, 2.250000000000000000 ) ) ;
#1113 = EDGE_CURVE ( 'NONE', #719, #1053, #105, .T. ) ;
#1114 = VERTEX_POINT ( 'NONE', #1081 ) ;
#1115 = CARTESIAN_POINT ( 'NONE',  ( -3.559999999999998700, -8.783095189484532400, 1.950000000000000200 ) ) ;
#1116 = CARTESIAN_POINT ( 'NONE',  ( -5.299999999999998000, 0.4999999999999987200, 3.000000000000000000 ) ) ;
#1117 = EDGE_CURVE ( 'NONE', #689, #758, #306, .T. ) ;
#1118 = DIRECTION ( 'NONE',  ( 1.000000000000000000, -0.0000000000000000000, -0.0000000000000000000 ) ) ;
#1119 = VERTEX_POINT ( 'NONE', #817 ) ;
#1120 = VECTOR ( 'NONE', #599, 1000.000000000000000 ) ;
#1121 = EDGE_LOOP ( 'NONE', ( #716, #590 ) ) ;
#1122 = AXIS2_PLACEMENT_3D ( 'NONE', #1091, #457, #1175 ) ;
#1123 = ORIENTED_EDGE ( 'NONE', *, *, #1012, .F. ) ;
#1124 = ADVANCED_FACE ( 'NONE', ( #1102 ), #860, .T. ) ;
#1125 = EDGE_LOOP ( 'NONE', ( #790, #1024, #1135, #1061 ) ) ;
#1126 = ORIENTED_EDGE ( 'NONE', *, *, #1156, .T. ) ;
#1127 = LINE ( 'NONE', #507, #880 ) ;
#1128 = VECTOR ( 'NONE', #616, 1000.000000000000000 ) ;
#1129 = FACE_OUTER_BOUND ( 'NONE', #1125, .T. ) ;
#1130 = VERTEX_POINT ( 'NONE', #1092 ) ;
#1131 = EDGE_CURVE ( 'NONE', #602, #603, #405, .T. ) ;
#1132 = VERTEX_POINT ( 'NONE', #458 ) ;
#1133 = EDGE_CURVE ( 'NONE', #1026, #916, #556, .T. ) ;
#1134 = VERTEX_POINT ( 'NONE', #1005 ) ;
#1135 = ORIENTED_EDGE ( 'NONE', *, *, #1113, .F. ) ;
#1136 = CIRCLE ( 'NONE', #288, 0.5000000000000000000 ) ;
#1137 = DIRECTION ( 'NONE',  ( 0.0000000000000000000, 1.000000000000000000, -0.0000000000000000000 ) ) ;
#1138 = PRESENTATION_STYLE_ASSIGNMENT (( #5 ) ) ;
#1139 = ORIENTED_EDGE ( 'NONE', *, *, #314, .F. ) ;
#1140 = DIRECTION ( 'NONE',  ( 1.734723475976807100E-015, -1.000000000000000000, -0.0000000000000000000 ) ) ;
#1141 = PRODUCT_CONTEXT ( 'NONE', #510, 'mechanical' ) ;
#1142 = STYLED_ITEM ( 'NONE', ( #308 ), #208 ) ;
#1143 = ORIENTED_EDGE ( 'NONE', *, *, #1131, .F. ) ;
#1144 = EDGE_LOOP ( 'NONE', ( #587, #1166, #75, #187 ) ) ;
#1145 = CARTESIAN_POINT ( 'NONE',  ( -5.299999999999998000, 0.4999999999999987200, 3.000000000000000000 ) ) ;
#1146 = ADVANCED_BREP_SHAPE_REPRESENTATION ( 'B0503S-1WR3', ( #208, #639, #732, #534, #686, #600, #416 ), #235 ) ;
#1147 = ORIENTED_EDGE ( 'NONE', *, *, #956, .T. ) ;
#1148 = VECTOR ( 'NONE', #252, 1000.000000000000000 ) ;
#1149 = DIRECTION ( 'NONE',  ( 0.0000000000000000000, 0.0000000000000000000, 1.000000000000000000 ) ) ;
#1150 = LINE ( 'NONE', #708, #1017 ) ;
#1151 = CARTESIAN_POINT ( 'NONE',  ( -4.060000000000000500, -8.783095189484532400, 2.250000000000000000 ) ) ;
#1152 = DIRECTION ( 'NONE',  ( -1.000000000000000000, 0.0000000000000000000, -0.0000000000000000000 ) ) ;
#1153 = FACE_OUTER_BOUND ( 'NONE', #505, .T. ) ;
#1154 = PLANE ( 'NONE',  #402 ) ;
#1155 = VECTOR ( 'NONE', #205, 1000.000000000000000 ) ;
#1156 = EDGE_CURVE ( 'NONE', #892, #757, #770, .T. ) ;
#1157 = MECHANICAL_DESIGN_GEOMETRIC_PRESENTATION_REPRESENTATION (  '', ( #365 ), #872 ) ;
#1158 = CARTESIAN_POINT ( 'NONE',  ( -4.060000000000001400, 0.4999999999999987200, 1.950000000000000200 ) ) ;
#1159 = PLANE ( 'NONE',  #409 ) ;
#1160 = CARTESIAN_POINT ( 'NONE',  ( 3.559999999999998700, -8.783095189484532400, 1.950000000000000200 ) ) ;
#1161 = DIRECTION ( 'NONE',  ( -1.000000000000000000, 0.0000000000000000000, -0.0000000000000000000 ) ) ;
#1162 = ORIENTED_EDGE ( 'NONE', *, *, #648, .F. ) ;
#1163 = PLANE ( 'NONE',  #649 ) ;
#1164 = CARTESIAN_POINT ( 'NONE',  ( 3.559999999999999600, 0.4999999999999987200, 2.250000000000000000 ) ) ;
#1165 = EDGE_CURVE ( 'NONE', #13, #399, #1028, .T. ) ;
#1166 = ORIENTED_EDGE ( 'NONE', *, *, #12, .F. ) ;
#1167 = EDGE_CURVE ( 'NONE', #55, #47, #313, .T. ) ;
#1168 = FACE_OUTER_BOUND ( 'NONE', #669, .T. ) ;
#1169 = DIRECTION ( 'NONE',  ( 0.0000000000000000000, -1.000000000000000000, 0.0000000000000000000 ) ) ;
#1170 = DIRECTION ( 'NONE',  ( -0.0000000000000000000, 1.000000000000000000, -0.0000000000000000000 ) ) ;
#1171 = LINE ( 'NONE', #199, #937 ) ;
#1172 = VECTOR ( 'NONE', #38, 1000.000000000000000 ) ;
#1173 = CARTESIAN_POINT ( 'NONE',  ( 3.559999999999998700, 0.4999999999999987200, 1.950000000000000200 ) ) ;
#1174 = PLANE ( 'NONE',  #948 ) ;
#1175 = DIRECTION ( 'NONE',  ( -1.000000000000000000, 0.0000000000000000000, -0.0000000000000000000 ) ) ;
#1176 = DIRECTION ( 'NONE',  ( -1.000000000000000000, 0.0000000000000000000, -0.0000000000000000000 ) ) ;
#1177 = DIRECTION ( 'NONE',  ( 2.891205793294681400E-015, -3.340955887615256400E-045, -1.000000000000000000 ) ) ;
ENDSEC;
END-ISO-10303-21;
