(kicad_symbol_lib (version 20211014) (generator kicad_symbol_editor)
  (symbol "BM64_Daughter_Board" (in_bom yes) (on_board yes)
    (property "Reference" "U" (id 0) (at 0 3.81 0)
      (effects (font (size 1.27 1.27)))
    )
    (property "Value" "BM64_Daughter_Board" (id 1) (at 0 2.54 0)
      (effects (font (size 1.27 1.27)))
    )
    (property "Footprint" "BM64_Daughter_Board:BM64_Daughter_Board" (id 2) (at 0 2.54 0)
      (effects (font (size 1.27 1.27)) hide)
    )
    (property "Datasheet" "" (id 3) (at 0 2.54 0)
      (effects (font (size 1.27 1.27)) hide)
    )
    (symbol "BM64_Daughter_Board_0_1"
      (rectangle (start -11.43 0) (end 11.43 -46.99)
        (stroke (width 0) (type default) (color 0 0 0 0))
        (fill (type none))
      )
    )
    (symbol "BM64_Daughter_Board_1_1"
      (pin power_in line (at 13.97 -2.54 180) (length 2.54)
        (name "GND" (effects (font (size 1.27 1.27))))
        (number "1" (effects (font (size 1.27 1.27))))
      )
      (pin input line (at -13.97 -12.7 0) (length 2.54)
        (name "I2S2_LRCL" (effects (font (size 1.27 1.27))))
        (number "10" (effects (font (size 1.27 1.27))))
      )
      (pin input line (at 13.97 -15.24 180) (length 2.54)
        (name "SPI2_SDI" (effects (font (size 1.27 1.27))))
        (number "11" (effects (font (size 1.27 1.27))))
      )
      (pin input line (at -13.97 -15.24 0) (length 2.54)
        (name "I2S2_BCLK" (effects (font (size 1.27 1.27))))
        (number "12" (effects (font (size 1.27 1.27))))
      )
      (pin input line (at 13.97 -17.78 180) (length 2.54)
        (name "SPI2_SDO" (effects (font (size 1.27 1.27))))
        (number "13" (effects (font (size 1.27 1.27))))
      )
      (pin no_connect line (at -13.97 -17.78 0) (length 2.54)
        (name "NC" (effects (font (size 1.27 1.27))))
        (number "14" (effects (font (size 1.27 1.27))))
      )
      (pin power_in line (at 13.97 -20.32 180) (length 2.54)
        (name "GND" (effects (font (size 1.27 1.27))))
        (number "15" (effects (font (size 1.27 1.27))))
      )
      (pin power_in line (at -13.97 -20.32 0) (length 2.54)
        (name "GND" (effects (font (size 1.27 1.27))))
        (number "16" (effects (font (size 1.27 1.27))))
      )
      (pin power_in line (at 13.97 -22.86 180) (length 2.54)
        (name "9V" (effects (font (size 1.27 1.27))))
        (number "17" (effects (font (size 1.27 1.27))))
      )
      (pin power_in line (at -13.97 -22.86 0) (length 2.54)
        (name "3.3V" (effects (font (size 1.27 1.27))))
        (number "18" (effects (font (size 1.27 1.27))))
      )
      (pin power_in line (at 13.97 -25.4 180) (length 2.54)
        (name "9V" (effects (font (size 1.27 1.27))))
        (number "19" (effects (font (size 1.27 1.27))))
      )
      (pin power_in line (at -13.97 -2.54 0) (length 2.54)
        (name "GND" (effects (font (size 1.27 1.27))))
        (number "2" (effects (font (size 1.27 1.27))))
      )
      (pin power_in line (at -13.97 -25.4 0) (length 2.54)
        (name "5V_SW_DIG" (effects (font (size 1.27 1.27))))
        (number "20" (effects (font (size 1.27 1.27))))
      )
      (pin input line (at -13.97 -30.48 0) (length 2.54)
        (name "I2S1_LRCL" (effects (font (size 1.27 1.27))))
        (number "21" (effects (font (size 1.27 1.27))))
      )
      (pin input line (at 13.97 -30.48 180) (length 2.54)
        (name "CARD_ID" (effects (font (size 1.27 1.27))))
        (number "22" (effects (font (size 1.27 1.27))))
      )
      (pin input line (at -13.97 -33.02 0) (length 2.54)
        (name "I2S1_BCLK" (effects (font (size 1.27 1.27))))
        (number "23" (effects (font (size 1.27 1.27))))
      )
      (pin no_connect line (at 13.97 -33.02 180) (length 2.54)
        (name "NC" (effects (font (size 1.27 1.27))))
        (number "24" (effects (font (size 1.27 1.27))))
      )
      (pin input line (at -13.97 -35.56 0) (length 2.54)
        (name "SPI1_SDI" (effects (font (size 1.27 1.27))))
        (number "25" (effects (font (size 1.27 1.27))))
      )
      (pin no_connect line (at 13.97 -35.56 180) (length 2.54)
        (name "NC" (effects (font (size 1.27 1.27))))
        (number "26" (effects (font (size 1.27 1.27))))
      )
      (pin input line (at -13.97 -38.1 0) (length 2.54)
        (name "I2S1_SDO" (effects (font (size 1.27 1.27))))
        (number "27" (effects (font (size 1.27 1.27))))
      )
      (pin no_connect line (at 13.97 -38.1 180) (length 2.54)
        (name "NC" (effects (font (size 1.27 1.27))))
        (number "28" (effects (font (size 1.27 1.27))))
      )
      (pin no_connect line (at -13.97 -40.64 0) (length 2.54)
        (name "NC" (effects (font (size 1.27 1.27))))
        (number "29" (effects (font (size 1.27 1.27))))
      )
      (pin output line (at 13.97 -5.08 180) (length 2.54)
        (name "UART2_Tx" (effects (font (size 1.27 1.27))))
        (number "3" (effects (font (size 1.27 1.27))))
      )
      (pin no_connect line (at 13.97 -40.64 180) (length 2.54)
        (name "NC" (effects (font (size 1.27 1.27))))
        (number "30" (effects (font (size 1.27 1.27))))
      )
      (pin power_in line (at -13.97 -43.18 0) (length 2.54)
        (name "GND" (effects (font (size 1.27 1.27))))
        (number "31" (effects (font (size 1.27 1.27))))
      )
      (pin power_out line (at 13.97 -43.18 180) (length 2.54)
        (name "GND" (effects (font (size 1.27 1.27))))
        (number "32" (effects (font (size 1.27 1.27))))
      )
      (pin output line (at -2.54 -49.53 90) (length 2.54)
        (name "AOHPR" (effects (font (size 1.27 1.27))))
        (number "33" (effects (font (size 1.27 1.27))))
      )
      (pin output line (at 0 -49.53 90) (length 2.54)
        (name "AOHPM" (effects (font (size 1.27 1.27))))
        (number "34" (effects (font (size 1.27 1.27))))
      )
      (pin output line (at 2.54 -49.53 90) (length 2.54)
        (name "AOHPL" (effects (font (size 1.27 1.27))))
        (number "35" (effects (font (size 1.27 1.27))))
      )
      (pin input line (at -13.97 -5.08 0) (length 2.54)
        (name "MFB" (effects (font (size 1.27 1.27))))
        (number "4" (effects (font (size 1.27 1.27))))
      )
      (pin input line (at 13.97 -7.62 180) (length 2.54)
        (name "UART2_Rx" (effects (font (size 1.27 1.27))))
        (number "5" (effects (font (size 1.27 1.27))))
      )
      (pin input line (at -13.97 -7.62 0) (length 2.54)
        (name "INT" (effects (font (size 1.27 1.27))))
        (number "6" (effects (font (size 1.27 1.27))))
      )
      (pin no_connect line (at 13.97 -10.16 180) (length 2.54)
        (name "NC" (effects (font (size 1.27 1.27))))
        (number "7" (effects (font (size 1.27 1.27))))
      )
      (pin input line (at -13.97 -10.16 0) (length 2.54)
        (name "STBY/RST" (effects (font (size 1.27 1.27))))
        (number "8" (effects (font (size 1.27 1.27))))
      )
      (pin no_connect line (at 13.97 -12.7 180) (length 2.54)
        (name "NC" (effects (font (size 1.27 1.27))))
        (number "9" (effects (font (size 1.27 1.27))))
      )
    )
  )
)
