PCBNEW-LibModule-V1  2022-04-10 15:32:46
# encoding utf-8
Units mm
$INDEX
DIP794W56P254L946H432Q8N
$EndINDEX
$MODULE DIP794W56P254L946H432Q8N
Po 0 0 0 15 6252ea8e 00000000 ~~
Li DIP794W56P254L946H432Q8N
Cd 8-Lead Plastic Dual In-line (P) – 300 mil (PDIP)
Kw Integrated Circuit
Sc 0
At STD
AR 
Op 0 0 0
T0 0 0 1.27 1.27 0 0.254 N V 21 N "IC**"
T1 0 0 1.27 1.27 0 0.254 N I 21 N "DIP794W56P254L946H432Q8N"
DS -4.96 -5.14 4.96 -5.14 0.05 24
DS 4.96 -5.14 4.96 5.14 0.05 24
DS 4.96 5.14 -4.96 5.14 0.05 24
DS -4.96 5.14 -4.96 -5.14 0.05 24
DS -3.3 -4.89 3.3 -4.89 0.1 24
DS 3.3 -4.89 3.3 4.89 0.1 24
DS 3.3 4.89 -3.3 4.89 0.1 24
DS -3.3 4.89 -3.3 -4.89 0.1 24
DS -3.3 -3.62 -2.03 -4.89 0.1 24
DS -4.55 -4.89 3.3 -4.89 0.2 21
DS -3.3 4.89 3.3 4.89 0.2 21
$PAD
Po -3.97 -3.81
Sh "1" R 1.16 1.16 0 0 900
Dr 0.76 0 0
At STD N 00E0FFFF
Ne 0 ""
$EndPAD
$PAD
Po -3.97 -1.27
Sh "2" C 1.16 1.16 0 0 900
Dr 0.76 0 0
At STD N 00E0FFFF
Ne 0 ""
$EndPAD
$PAD
Po -3.97 1.27
Sh "3" C 1.16 1.16 0 0 900
Dr 0.76 0 0
At STD N 00E0FFFF
Ne 0 ""
$EndPAD
$PAD
Po -3.97 3.81
Sh "4" C 1.16 1.16 0 0 900
Dr 0.76 0 0
At STD N 00E0FFFF
Ne 0 ""
$EndPAD
$PAD
Po 3.97 3.81
Sh "5" C 1.16 1.16 0 0 900
Dr 0.76 0 0
At STD N 00E0FFFF
Ne 0 ""
$EndPAD
$PAD
Po 3.97 1.27
Sh "6" C 1.16 1.16 0 0 900
Dr 0.76 0 0
At STD N 00E0FFFF
Ne 0 ""
$EndPAD
$PAD
Po 3.97 -1.27
Sh "7" C 1.16 1.16 0 0 900
Dr 0.76 0 0
At STD N 00E0FFFF
Ne 0 ""
$EndPAD
$PAD
Po 3.97 -3.81
Sh "8" C 1.16 1.16 0 0 900
Dr 0.76 0 0
At STD N 00E0FFFF
Ne 0 ""
$EndPAD
$EndMODULE DIP794W56P254L946H432Q8N
$EndLIBRARY
