PCBNEW-LibModule-V1  2021-09-04 15:46:10
# encoding utf-8
Units mm
$INDEX
B0505S1W
$EndINDEX
$MODULE B0505S1W
Po 0 0 0 15 613386b2 00000000 ~~
Li B0505S1W
Cd B0505S-1W-1
Kw Power Supply
Sc 0
At STD
AR 
Op 0 0 0
T0 3.810 -1.75 1.27 1.27 0 0.254 N V 21 N "PS**"
T1 3.810 -1.75 1.27 1.27 0 0.254 N I 21 N "B0505S1W"
DS -1.99 -5.1 9.61 -5.1 0.2 24
DS 9.61 -5.1 9.61 0.9 0.2 24
DS 9.61 0.9 -1.99 0.9 0.2 24
DS -1.99 0.9 -1.99 -5.1 0.2 24
DS -1.99 -5.1 9.61 -5.1 0.1 21
DS 9.61 -5.1 9.61 0.9 0.1 21
DS 9.61 0.9 -1.99 0.9 0.1 21
DS -1.99 0.9 -1.99 -5.1 0.1 21
DS -2.99 -6.1 10.61 -6.1 0.1 24
DS 10.61 -6.1 10.61 2.6 0.1 24
DS 10.61 2.6 -2.99 2.6 0.1 24
DS -2.99 2.6 -2.99 -6.1 0.1 24
DS -0.1 1.5 -0.1 1.5 0.2 21
DS -0.3 1.5 -0.3 1.5 0.2 21
DA -0.2 1.5 -0.100 1.5 -1800 0.2 21
DA -0.2 1.5 -0.300 1.5 -1800 0.2 21
$PAD
Po 0.000 -0
Sh "1" C 1.500 1.500 0 0 900
Dr 1 0 0
At STD N 00E0FFFF
Ne 0 ""
$EndPAD
$PAD
Po 2.540 -0
Sh "2" C 1.500 1.500 0 0 900
Dr 1 0 0
At STD N 00E0FFFF
Ne 0 ""
$EndPAD
$PAD
Po 5.080 -0
Sh "3" C 1.500 1.500 0 0 900
Dr 1 0 0
At STD N 00E0FFFF
Ne 0 ""
$EndPAD
$PAD
Po 7.620 -0
Sh "4" C 1.500 1.500 0 0 900
Dr 1 0 0
At STD N 00E0FFFF
Ne 0 ""
$EndPAD
$EndMODULE B0505S1W
$EndLIBRARY
